{
  "gazetaexpress.com": "https://scontent.ftia14-1.fna.fbcdn.net/v/t1.6435-1/c11.0.199.200a/p200x200/53563569_10156045369476711_2204917977906675712_n.png?_nc_cat=1&ccb=1-3&_nc_sid=dbb9e7&_nc_ohc=4wcNIUzBUpkAX9NSxDL&_nc_ht=scontent.ftia14-1.fna&oh=354fd544ee6597655fb280b3a239bf5d&oe=60FCD805",
  "balkanweb.com": "https://scontent.ftia14-1.fna.fbcdn.net/v/t1.18169-1/c44.44.526.526a/s200x200/14457540_1112430388805917_780069096964082788_n.png?_nc_cat=1&ccb=1-3&_nc_sid=dbb9e7&_nc_ohc=EE6tE98i0u4AX-obwrs&_nc_ht=scontent.ftia14-1.fna&oh=88debae9b420f03fd7fb561acb803749&oe=60FDE320",
  "gjirafa.com": "https://scontent.ftia14-1.fna.fbcdn.net/v/t31.18172-1/p200x200/15844356_846642825475887_3748418905303728246_o.png?_nc_cat=107&ccb=1-3&_nc_sid=dbb9e7&_nc_ohc=6g2U4Zt7f8AAX_H8AdR&_nc_ht=scontent.ftia14-1.fna&oh=2759e57023b81b09ead511d4a102e315&oe=611EA3B5",
  "panorama.com.al": "https://scontent.ftia14-1.fna.fbcdn.net/v/t1.18169-1/p200x200/13567002_1136326263097606_7465438907686067644_n.png?_nc_cat=1&ccb=1-3&_nc_sid=dbb9e7&_nc_ohc=wV8QpuMRZyoAX_ThvTw&_nc_ht=scontent.ftia14-1.fna&oh=e1b9fe34247a68e1920c0e6d43cd8c82&oe=60FDEB4E",
  "abcnews.al": "https://scontent.ftia14-1.fna.fbcdn.net/v/t1.6435-1/p200x200/123408953_3378935192221881_5208047317762643721_n.png?_nc_cat=1&ccb=1-3&_nc_sid=dbb9e7&_nc_ohc=DQk1eU9AZscAX8vikRX&_nc_ht=scontent.ftia14-1.fna&oh=251a76fc597eaf571f2a7637dbdc719a&oe=60FCCC66",
  "tvklan.al": "https://scontent.ftia14-1.fna.fbcdn.net/v/t1.6435-1/p200x200/73132321_2737698946263141_6721316642178990080_n.png?_nc_cat=1&ccb=1-3&_nc_sid=dbb9e7&_nc_ohc=8dOCMSOSTtsAX-1KJD3&_nc_ht=scontent.ftia14-1.fna&oh=967c06c33c908a54a1377c4a7499b751&oe=60FD42F2",
  "anabelmagazine.com": "https://scontent.ftia14-1.fna.fbcdn.net/v/t1.6435-1/p200x200/101856060_3423248417759242_6565020759347953664_n.jpg?_nc_cat=1&ccb=1-3&_nc_sid=dbb9e7&_nc_ohc=5FJhL20FfG0AX9iMTUk&_nc_ht=scontent.ftia14-1.fna&oh=9945026c97589f496ab083fe06f9eacd&oe=60FE2814",
  "kallxo.com": "https://scontent.ftia14-1.fna.fbcdn.net/v/t1.18169-1/s200x200/941022_919053828164099_7844958346964837576_n.jpg?_nc_cat=1&ccb=1-3&_nc_sid=dbb9e7&_nc_ohc=UnHCe-G1FV8AX87re8f&_nc_ht=scontent.ftia14-1.fna&oh=5758d048e36fe0d89e58140ca7c56ab6&oe=60FDE49B",
  "lajmi.net": "https://scontent.ftia14-1.fna.fbcdn.net/v/t1.18169-1/24067925_863444490447000_2893310408033350586_n.png?_nc_cat=1&ccb=1-3&_nc_sid=dbb9e7&_nc_ohc=MXVsxNMHoaIAX-H-hm_&_nc_ht=scontent.ftia14-1.fna&oh=0f6454b83fdd7b7ab577be5f8394f41b&oe=60FDD38F",
  "klankosova.tv": "https://scontent.ftia14-1.fna.fbcdn.net/v/t1.18169-1/c15.0.200.200a/p200x200/11148469_936188793092982_5322317009764096377_n.png?_nc_cat=1&ccb=1-3&_nc_sid=dbb9e7&_nc_ohc=nzTe5iAfX3gAX-7lE-H&_nc_ht=scontent.ftia14-1.fna&oh=54d40bd3769343308520b8c7ec401403&oe=60FE6B45",
  "noa.al": "https://scontent.ftia14-1.fna.fbcdn.net/v/t1.6435-1/p200x200/186413872_10164796321330198_1772940651541876002_n.jpg?_nc_cat=1&ccb=1-3&_nc_sid=dbb9e7&_nc_ohc=Hq3N-G2m6_4AX_dxDND&_nc_ht=scontent.ftia14-1.fna&oh=99f26ec31351dd649adc545f40bb23d2&oe=60FE5536",
  "syri.net": "https://scontent.ftia14-1.fna.fbcdn.net/v/t1.18169-1/p200x200/15541495_1207377242676896_7249997824317356625_n.jpg?_nc_cat=1&ccb=1-3&_nc_sid=dbb9e7&_nc_ohc=sNARDZhSN5oAX-Bj2L2&_nc_ht=scontent.ftia14-1.fna&oh=4a177eb80967b36810cbdea2fdaaa7c3&oe=60FD92FE",
  "top-channel.tv": "https://scontent.ftia14-1.fna.fbcdn.net/v/t1.18169-1/p200x200/1240111_10151833262438151_47114576_n.png?_nc_cat=1&ccb=1-3&_nc_sid=dbb9e7&_nc_ohc=By2_wLCUF9gAX_mZIiE&_nc_ht=scontent.ftia14-1.fna&oh=3fc39157ddee51feedf889aed1ef6518&oe=60FCAF96",
  "telegrafi.com": "https://scontent.ftia14-1.fna.fbcdn.net/v/t1.6435-1/p200x200/52818234_2638594959490197_1363909814517760000_n.jpg?_nc_cat=1&ccb=1-3&_nc_sid=dbb9e7&_nc_ohc=H0xRO5CcvKwAX-9_1A9&_nc_ht=scontent.ftia14-1.fna&oh=81df7bac07ea21b9dae5d4aeb95397f0&oe=60FCE6F8",
  "albeu.com": "https://scontent.ftia14-1.fna.fbcdn.net/v/t1.6435-1/p200x200/159759519_10157560327582352_2128558198123761292_n.png?_nc_cat=1&ccb=1-3&_nc_sid=dbb9e7&_nc_ohc=lMnBwV-q-KAAX-SYwz-&_nc_ht=scontent.ftia14-1.fna&oh=e2f876b88fac14154be7cdae4b9ce7d8&oe=60FDAAEE",
  "shqiptarja.com": "https://scontent.ftia14-1.fna.fbcdn.net/v/t1.6435-1/c27.22.188.188a/p240x240/120428797_3581883548541548_4302359886509101357_n.png?_nc_cat=1&ccb=1-3&_nc_sid=dbb9e7&_nc_ohc=2zifCfN8jRkAX_9Xx10&_nc_ht=scontent.ftia14-1.fna&oh=3e360e55d34af5b7b582e09bd6c73746&oe=60FDAE99",
  "lapsi.al": "https://scontent.ftia14-1.fna.fbcdn.net/v/t31.18172-1/p200x200/23213293_1312011328945036_5755639386099037440_o.png?_nc_cat=1&ccb=1-3&_nc_sid=dbb9e7&_nc_ohc=JAmOof_nKi0AX9kwBvY&_nc_ht=scontent.ftia14-1.fna&oh=4a6ff9fe5102b25549de193be17f23f9&oe=611F4D1C",
  "insajderi.com": "https://scontent.ftia14-1.fna.fbcdn.net/v/t31.18172-1/p200x200/12621949_1939336522958835_3373332144647209614_o.jpg?_nc_cat=1&ccb=1-3&_nc_sid=dbb9e7&_nc_ohc=M4u78bd-FdYAX8NNEjd&_nc_ht=scontent.ftia14-1.fna&oh=dedc2a9efcefd6850430215401a0c720&oe=611F499E",
  "gazetatema.net": "https://scontent.ftia14-1.fna.fbcdn.net/v/t1.6435-1/p200x200/102802573_3101801759867970_3923633194518650502_n.jpg?_nc_cat=100&ccb=1-3&_nc_sid=dbb9e7&_nc_ohc=6P0pMb0hrAUAX__IdBS&_nc_ht=scontent.ftia14-1.fna&oh=0e7826af8fcd93c8230f2f9dc95a5ca0&oe=60FD7B79",
  "indeksonline.net": "https://scontent.ftia14-1.fna.fbcdn.net/v/t1.6435-1/p200x200/172755591_3767171923380460_6524694757155236613_n.png?_nc_cat=1&ccb=1-3&_nc_sid=dbb9e7&_nc_ohc=pl4oWSMkDQcAX_aTQTR&_nc_ht=scontent.ftia14-1.fna&oh=d926b64489363cf65d3fe008dcd45101&oe=60FE3562",
  "koha.net": "https://scontent.ftia14-1.fna.fbcdn.net/v/t1.6435-1/p200x200/159414792_1632277286962470_5371218028365476922_n.jpg?_nc_cat=1&ccb=1-3&_nc_sid=dbb9e7&_nc_ohc=jHQPYLGtECgAX934Zwx&_nc_ht=scontent.ftia14-1.fna&oh=629a3292a4ae9095941fa6022547ed68&oe=60FE74FD",
  "oranews.tv": "https://scontent.ftia14-1.fna.fbcdn.net/v/t1.6435-1/p200x200/127501210_2959217500870019_9149970272120378850_n.jpg?_nc_cat=1&ccb=1-3&_nc_sid=dbb9e7&_nc_ohc=d_mc-uToTokAX-b9H2u&_nc_ht=scontent.ftia14-1.fna&oh=c76e5b4a6ac45753b5f351bbb3f2c6cf&oe=60FCC505",
  "kohajone.com": "https://scontent.ftia14-1.fna.fbcdn.net/v/t1.18169-1/p200x200/26219334_764785247044348_3710624132836828184_n.jpg?_nc_cat=1&ccb=1-3&_nc_sid=dbb9e7&_nc_ohc=UaQVYAukweoAX-XnAVp&_nc_ht=scontent.ftia14-1.fna&oh=41c865365e64ecb8c0cb9d3849830dbf&oe=60FE379D",
  "dosja.al": "https://scontent.ftia14-1.fna.fbcdn.net/v/t1.6435-1/p200x200/201634656_1424881301206338_7458250037121984662_n.jpg?_nc_cat=102&ccb=1-3&_nc_sid=dbb9e7&_nc_ohc=qcp4BZoePq0AX_LYccO&_nc_ht=scontent.ftia14-1.fna&oh=cd95cafc7b2a0c86ac7ad336cb0aac58&oe=60FE4360",
  "scan-tv.com": "https://scontent.ftia14-1.fna.fbcdn.net/v/t1.18169-1/s200x200/198876_10150118630725886_7175617_n.jpg?_nc_cat=109&ccb=1-3&_nc_sid=dbb9e7&_nc_ohc=uwWzxlk978YAX8qpWR8&_nc_ht=scontent.ftia14-1.fna&oh=b9b87d8550d72808b745aad003c16487&oe=60FDC5D6",
  "gazetablic.com": "https://scontent.ftia14-1.fna.fbcdn.net/v/t1.6435-1/p200x200/50524867_2269782633086279_3658161179445952512_n.jpg?_nc_cat=1&ccb=1-3&_nc_sid=dbb9e7&_nc_ohc=vOJagVgHMUcAX_s4C6z&_nc_ht=scontent.ftia14-1.fna&oh=e5b6f8b387379b5a9dcf6069e65e5d8a&oe=60FD8ED7",
  "rtklive.com": "https://scontent.ftia14-1.fna.fbcdn.net/v/t1.6435-1/p200x200/60151840_10156951423118859_8085232705874165760_n.png?_nc_cat=1&ccb=1-3&_nc_sid=dbb9e7&_nc_ohc=MAalJxp6emIAX8SjzoZ&_nc_ht=scontent.ftia14-1.fna&oh=f2bb8769520e4cb263b5e8e239cf7e91&oe=60FE0A92",
  "fax.al": "https://scontent.ftia14-1.fna.fbcdn.net/v/t1.18169-1/c29.0.200.200a/p200x200/13319930_818264601638139_6794092774050213876_n.jpg?_nc_cat=106&ccb=1-3&_nc_sid=dbb9e7&_nc_ohc=crB1OVf5facAX8qlRCC&_nc_ht=scontent.ftia14-1.fna&oh=6a2f2d471c23174a5210a1d570e5b890&oe=60FE56E6",
  "gazetametro.net": "https://scontent.ftia14-1.fna.fbcdn.net/v/t1.6435-1/p200x200/52966834_761838224201837_2699344859151466496_n.jpg?_nc_cat=1&ccb=1-3&_nc_sid=dbb9e7&_nc_ohc=eFg1T_D8PxoAX_FumN2&_nc_ht=scontent.ftia14-1.fna&oh=d6e8e0887d187d35b2547a39fd226b3d&oe=60FD715A",
  "monitor.al": "https://yt3.ggpht.com/ytc/AKedOLQKJFiO-6IlaUV9eijF_vjW0WTe4OVhziJAvd6U=s88-c-k-c0x00ffffff-no-rj",
  "telesport.al": "https://scontent.ftia14-1.fna.fbcdn.net/v/t1.6435-1/p200x200/39521775_2124457904253650_2014754950801784832_n.png?_nc_cat=1&ccb=1-3&_nc_sid=dbb9e7&_nc_ohc=Wwfi49oSfDMAX89BMBq&_nc_ht=scontent.ftia14-1.fna&oh=dbfb3a23fa425d08a7f2ba6364cab2a0&oe=60FCA46D",
  "faxweb.al": "https://scontent.ftia14-1.fna.fbcdn.net/v/t1.18169-1/c2.0.182.182a/23755088_142661966381774_2054316028380599886_n.jpg?_nc_cat=1&ccb=1-3&_nc_sid=dbb9e7&_nc_ohc=kd8F3MGWxlkAX8Iqed7&_nc_ht=scontent.ftia14-1.fna&oh=7f2723e4b95eaf699abaf3e1c17e1b7c&oe=60FCA3EE",
  "opinion.al": "https://scontent.ftia14-1.fna.fbcdn.net/v/t1.18169-1/p200x200/13076964_10153654596007198_7822090754283730767_n.jpg?_nc_cat=1&ccb=1-3&_nc_sid=dbb9e7&_nc_ohc=LcYi96iIaOsAX-G76MD&_nc_ht=scontent.ftia14-1.fna&oh=a28cd746fc6262065af5c28409be86f0&oe=60FD475F",
  "gotanews.tv": "https://scontent.ftia14-1.fna.fbcdn.net/v/t1.6435-1/p200x200/84002722_1714318235392223_618980554871668736_n.jpg?_nc_cat=109&ccb=1-3&_nc_sid=dbb9e7&_nc_ohc=6mVED_oo-9UAX_Xivbu&_nc_ht=scontent.ftia14-1.fna&oh=577bd8047f7c1126b0a9ce5ea390037d&oe=60FE5E42",
  "a2news.com": "https://scontent.ftia14-1.fna.fbcdn.net/v/t1.6435-1/p200x200/203301339_763949530968411_8334074115426060324_n.jpg?_nc_cat=1&ccb=1-3&_nc_sid=dbb9e7&_nc_ohc=xlxNN5OABu0AX9ui8qs&_nc_ht=scontent.ftia14-1.fna&oh=21a842155bf75fb164578451d659ff39&oe=60FE365E",
  "euronews.al": "https://scontent.ftia14-1.fna.fbcdn.net/v/t1.6435-1/p200x200/87157745_3470273236334011_5302015806970789888_n.png?_nc_cat=1&ccb=1-3&_nc_sid=dbb9e7&_nc_ohc=edwfrAATxHUAX8kxYnT&_nc_ht=scontent.ftia14-1.fna&oh=8d4db69e1a369fc0d5ef4d452d042b1b&oe=60FD2856",
  "tiranatoday.al": "https://scontent.ftia14-1.fna.fbcdn.net/v/t1.6435-1/p200x200/87288098_890011764776895_225214710474080256_n.png?_nc_cat=102&ccb=1-3&_nc_sid=dbb9e7&_nc_ohc=ZraXnINWhOkAX-Hv3UC&_nc_ht=scontent.ftia14-1.fna&oh=dcda3c01c23f7839e9a35744c1a1e61f&oe=60FDF235",
  "sinjali.com": "https://scontent.ftia14-1.fna.fbcdn.net/v/t1.6435-1/p200x200/136063523_691194374884196_1724636554572494741_n.png?_nc_cat=1&ccb=1-3&_nc_sid=dbb9e7&_nc_ohc=uf3j2lC1gDcAX-AMd-5&_nc_ht=scontent.ftia14-1.fna&oh=b59d6ac3aa88abf48ad0dd7a2278d196&oe=60FE4679",
  "botasot.info":"https://scontent.ftia14-1.fna.fbcdn.net/v/t1.6435-1/p200x200/67783529_106330930727813_1361036464216866816_n.jpg?_nc_cat=1&ccb=1-3&_nc_sid=dbb9e7&_nc_ohc=5LhhvhkH8QsAX_wV2Rt&_nc_ht=scontent.ftia14-1.fna&oh=e02ba45ce136c14b5c0c2df484fb71a2&oe=60FD9653",
  "suharekaonline.com": "https://scontent.ftia14-1.fna.fbcdn.net/v/t1.6435-1/p200x200/128172434_759945508064511_4598498808503075257_n.png?_nc_cat=103&ccb=1-3&_nc_sid=dbb9e7&_nc_ohc=zdlUbb5e1D0AX8A5i7i&_nc_ht=scontent.ftia14-1.fna&oh=dba3f20484dc695da0bf50d959b9f98b&oe=60FDD3E0",
  "insajderi.org": "https://scontent.ftia14-1.fna.fbcdn.net/v/t31.18172-1/p200x200/12621949_1939336522958835_3373332144647209614_o.jpg?_nc_cat=1&ccb=1-3&_nc_sid=dbb9e7&_nc_ohc=M4u78bd-FdYAX8NNEjd&_nc_ht=scontent.ftia14-1.fna&oh=dedc2a9efcefd6850430215401a0c720&oe=611F499E",
  "periskopi.com": "https://scontent.ftia14-1.fna.fbcdn.net/v/t1.6435-1/p200x200/161083036_273093641055593_1973840453213313565_n.jpg?_nc_cat=1&ccb=1-3&_nc_sid=c6021c&_nc_ohc=-SnT5euPGW4AX8TEuNp&_nc_ht=scontent.ftia14-1.fna&oh=ee0e5c10f2e596465056d7173df5ac08&oe=60FDB0A7",
  "shkodraweb.com": "https://scontent.ftia14-1.fna.fbcdn.net/v/t1.6435-1/p200x200/217079474_10158477911725829_6869188879931004307_n.png?_nc_cat=106&ccb=1-3&_nc_sid=dbb9e7&_nc_ohc=ezH_v9P8RCcAX-HIK4X&_nc_ht=scontent.ftia14-1.fna&oh=56b16f30d4b2357eb9bc75b478b57f88&oe=60FD250E",
  "lajmifundit.al": "https://scontent.ftia14-1.fna.fbcdn.net/v/t1.6435-1/p200x200/203574328_4175825402473907_6408975317852025560_n.png?_nc_cat=1&ccb=1-3&_nc_sid=dbb9e7&_nc_ohc=CqYDheTWq9cAX9IZr_m&_nc_ht=scontent.ftia14-1.fna&oh=b6df4cded4cc3eb85897a4bc1109fd31&oe=60FCC5D8",
  "shqipet.live": "https://scontent.ftia14-1.fna.fbcdn.net/v/t1.6435-1/c26.0.200.200a/p200x200/167452218_101122795422796_3594364080424381552_n.png?_nc_cat=102&ccb=1-3&_nc_sid=dbb9e7&_nc_ohc=OIT1E9ldeUYAX9Jpfl4&_nc_ht=scontent.ftia14-1.fna&oh=abdb4900b7044cdd5fc4dd08cd20b5f6&oe=60FE6910",
  "newsbomb.al": "https://scontent.ftia14-1.fna.fbcdn.net/v/t1.18169-1/10968405_1020764624619392_2822560501071920203_n.png?_nc_cat=105&ccb=1-3&_nc_sid=dbb9e7&_nc_ohc=wTJJWa5XJ8YAX9gFErb&_nc_ht=scontent.ftia14-1.fna&oh=ed35375a9cfe58e1585c44ffb722dae5&oe=60FE21F8",
  "hapur.al": "https://yt3.ggpht.com/ytc/AKedOLTsfFnhvpahxs1SCpnX5T-go6mITM7FuHsAmia6=s88-c-k-c0x00ffffff-no-rj",
  "zeriamerikes.com": "https://scontent.ftia14-1.fna.fbcdn.net/v/t1.6435-1/p200x200/202417716_10159253799169536_7946568996579415570_n.png?_nc_cat=1&ccb=1-3&_nc_sid=dbb9e7&_nc_ohc=izzw9PWrvpAAX9bEQg9&_nc_ht=scontent.ftia14-1.fna&oh=96197c18b9c3931e0e62ed3966e6f5ea&oe=60FCCAD5",
  "sot.com.al": "https://scontent.ftia14-1.fna.fbcdn.net/v/t1.6435-1/p200x200/81698355_10158027611321202_1719457390648098816_n.jpg?_nc_cat=101&ccb=1-3&_nc_sid=dbb9e7&_nc_ohc=b6s3wJeo0n4AX-vSJK4&_nc_ht=scontent.ftia14-1.fna&oh=ed471d89a7fadcb9e3272568dd749441&oe=60FE3DAC",
  "ekonomiaonline.com": "https://scontent.ftia14-1.fna.fbcdn.net/v/t1.18169-1/c22.0.200.200a/p200x200/13238874_1096572747053253_6858664790432576652_n.png?_nc_cat=107&ccb=1-3&_nc_sid=dbb9e7&_nc_ohc=ImCoBF7YTSUAX_QbsuH&_nc_ht=scontent.ftia14-1.fna&oh=91d4c4629444c18831fb0bcbe785b3e7&oe=60FDBD14",
  "gazetadita.al": "https://scontent.ftia14-1.fna.fbcdn.net/v/t1.6435-1/p200x200/209907589_126656669588080_2976241701703395559_n.jpg?_nc_cat=103&ccb=1-3&_nc_sid=c6021c&_nc_ohc=ENmHIwAV_9MAX9vNg96&_nc_ht=scontent.ftia14-1.fna&oh=97dee794f2f92d985aca5e66e1ea0268&oe=60FCA076",
  "shkodrasport.com": "https://scontent.ftia14-1.fna.fbcdn.net/v/t1.6435-1/p200x200/75481744_2564314143635555_7799788895914164224_n.jpg?_nc_cat=111&ccb=1-3&_nc_sid=dbb9e7&_nc_ohc=P2Cma4vlhB4AX8zievt&_nc_ht=scontent.ftia14-1.fna&oh=fe9eb97a39431f596ec00c3f76e04c16&oe=60FD6393",
  "allnews.al": "https://scontent.ftia14-1.fna.fbcdn.net/v/t1.6435-1/p200x200/118577788_196096638534390_3184726294136616627_n.png?_nc_cat=111&ccb=1-3&_nc_sid=dbb9e7&_nc_ohc=J8kinY2MhbcAX8884zy&_nc_ht=scontent.ftia14-1.fna&oh=81b1cc796793f3d3daf2f2049fad5447&oe=60FD0560",
  "gazeta-shqip.com": "https://scontent.ftia14-1.fna.fbcdn.net/v/t1.6435-1/p200x200/104271972_2963435730421173_2250536020393636519_n.jpg?_nc_cat=1&ccb=1-3&_nc_sid=dbb9e7&_nc_ohc=vI2lpj39KWIAX8InwR2&_nc_ht=scontent.ftia14-1.fna&oh=4bc868407467ee89c4e29abc5638b4ec&oe=60FD0E41",
  "kosovarja-ks.com": "https://scontent.ftia14-1.fna.fbcdn.net/v/t1.6435-1/p200x200/157705753_102827281878213_2954039035116990366_n.jpg?_nc_cat=1&ccb=1-3&_nc_sid=c6021c&_nc_ohc=SBwzTTZ7Q3cAX-C0A1M&_nc_ht=scontent.ftia14-1.fna&oh=6f04d651fd1d9938d95868c9a1f88a37&oe=60FE1E46",
  "boldnews.al": "https://scontent.ftia14-1.fna.fbcdn.net/v/t1.6435-1/p200x200/79732860_2179756958997779_2485727814507036672_n.jpg?_nc_cat=108&ccb=1-3&_nc_sid=dbb9e7&_nc_ohc=zkMOmkQS_IQAX_Zx36u&_nc_ht=scontent.ftia14-1.fna&oh=b24178277f0d2c84e10d5eef4291a2eb&oe=60FCEE3F",
  "vizionplus.tv": "https://scontent.ftia14-1.fna.fbcdn.net/v/t1.6435-1/p200x200/204111390_1601528296709422_5209178721064494307_n.png?_nc_cat=108&ccb=1-3&_nc_sid=dbb9e7&_nc_ohc=FWgd-5Q0KDoAX81t7nT&_nc_ht=scontent.ftia14-1.fna&oh=d89da92a035ff2af4194bdbdbf10a576&oe=60FCE926",
  "voal.ch": "https://scontent.ftia14-1.fna.fbcdn.net/v/t1.6435-1/p200x200/169779412_2619970804966912_3522281184991237733_n.jpg?_nc_cat=104&ccb=1-3&_nc_sid=dbb9e7&_nc_ohc=gt7cnHhB9cUAX9WgYZ2&_nc_ht=scontent.ftia14-1.fna&oh=4f30fb16f1d98a42a8c17abd7ccb7f4c&oe=60FD62AB",
  "gazetamapo.al": "https://scontent.ftia14-1.fna.fbcdn.net/v/t1.6435-1/p200x200/87283473_110485553881116_5519427493875941376_n.jpg?_nc_cat=103&ccb=1-3&_nc_sid=dbb9e7&_nc_ohc=f5Phxap6xPMAX_6hPVS&_nc_ht=scontent.ftia14-1.fna&oh=950c8a6b54a94f277457cc293b63a74e&oe=60FD5D24",
  "epokaere.com": "https://scontent.ftia14-1.fna.fbcdn.net/v/t1.6435-1/p200x200/44728471_2130079087023344_4746720125221076992_n.jpg?_nc_cat=1&ccb=1-3&_nc_sid=dbb9e7&_nc_ohc=iFdJsepIsXIAX_wP4Gl&_nc_ht=scontent.ftia14-1.fna&oh=334955f9ee4ebe5188866c9dee5507b6&oe=60FCA293",
  "rtsh.al": "https://scontent.ftia14-1.fna.fbcdn.net/v/t1.6435-1/p200x200/167437783_4075440729190102_8147630806760013194_n.jpg?_nc_cat=103&ccb=1-3&_nc_sid=dbb9e7&_nc_ohc=omDozPBLzRoAX9ZU_4r&_nc_ht=scontent.ftia14-1.fna&oh=aab56b3b0d898ed3fd9ce2509a677d88&oe=60FCBBBC",
  "diasporashqiptare.al": "https://scontent.ftia14-1.fna.fbcdn.net/v/t1.6435-1/p200x200/91836709_971319690013802_5465086236207087616_n.jpg?_nc_cat=111&ccb=1-3&_nc_sid=dbb9e7&_nc_ohc=E71ZTSOUNegAX-4re6l&_nc_ht=scontent.ftia14-1.fna&oh=0eb1055f6b2f2cc820e8959b0ecf7d7c&oe=60FCCB94",
  "zeropese.com": "https://scontent.ftia14-1.fna.fbcdn.net/v/t1.6435-1/p200x200/95638077_1679693455513415_2366799285317533696_n.png?_nc_cat=110&ccb=1-3&_nc_sid=dbb9e7&_nc_ohc=_yGG8TuLBUAAX__U-9Q&_nc_ht=scontent.ftia14-1.fna&oh=74e841c1dbe6812771f52ed39cd3fa39&oe=60FE7143",
  "evropaelire.org": "https://scontent.ftia14-1.fna.fbcdn.net/v/t1.18169-1/p200x200/1184886_10151861520397249_413178339_n.png?_nc_cat=1&ccb=1-3&_nc_sid=dbb9e7&_nc_ohc=-WgOUc6TPvQAX-Lsy7Z&_nc_ht=scontent.ftia14-1.fna&oh=21b1681ce604a8318afd88c2968b3f3e&oe=60FD52DB",
  "reporter.al": "https://scontent.ftia14-1.fna.fbcdn.net/v/t1.18169-1/p200x200/10338694_359175047568559_3354000722657504039_n.png?_nc_cat=109&ccb=1-3&_nc_sid=dbb9e7&_nc_ohc=AJ7Od9TTQ3gAX_drVzL&_nc_ht=scontent.ftia14-1.fna&oh=986ef50dc3f1ffe64dc35c66023fbe20&oe=60FCB952",
  "maska.al": "https://scontent.ftia14-1.fna.fbcdn.net/v/t1.6435-1/s200x200/168945504_176995607595171_9207626286014509941_n.png?_nc_cat=103&ccb=1-3&_nc_sid=dbb9e7&_nc_ohc=Zl1URK6YTj4AX9YoIuJ&_nc_ht=scontent.ftia14-1.fna&oh=130b982c93fbaa7ce477ebbc49f1ea0d&oe=60FDFC4C",
  "fastnewsalbania.com": "https://scontent.ftia14-1.fna.fbcdn.net/v/t1.6435-1/p200x200/46522522_2232968986727476_3091454632879194112_n.jpg?_nc_cat=109&ccb=1-3&_nc_sid=dbb9e7&_nc_ohc=gGLPQOoziK0AX_5FUNM&_nc_oc=AQmjDca61neqYwr05SOinSipiT9weLgq5Pvq8e30Zy8LHbHSZyTFUZiUPsMfFMGJ2Ic&_nc_ht=scontent.ftia14-1.fna&oh=f43b520ef88fea899d218a1615414eab&oe=60FDC431",
  "tpz.al": "https://scontent.ftia14-1.fna.fbcdn.net/v/t1.18169-1/c37.1.198.198a/p200x200/11009956_1540540206210315_4131712751454334685_n.jpg?_nc_cat=1&ccb=1-3&_nc_sid=dbb9e7&_nc_ohc=1jdAH_WlBigAX9slb_v&_nc_ht=scontent.ftia14-1.fna&oh=c136d39a2220ca82390741644de6be05&oe=60FD1E8F",
  "tirananews.al": "https://scontent.ftia14-1.fna.fbcdn.net/v/t1.18169-1/p200x200/18198609_194217841098055_2732094399935796994_n.jpg?_nc_cat=110&ccb=1-3&_nc_sid=dbb9e7&_nc_ohc=QpSavsQqCmQAX-4Md0U&_nc_ht=scontent.ftia14-1.fna&oh=20e9cfada08bbc1479e0b0f96d1fabea&oe=60FD819B",
  "globisot.net": "https://scontent.ftia14-1.fna.fbcdn.net/v/t1.6435-1/p200x200/148023727_3949841068400646_6494640807007985772_n.png?_nc_cat=111&ccb=1-3&_nc_sid=dbb9e7&_nc_ohc=ShNQ50qglgQAX9jz96R&_nc_ht=scontent.ftia14-1.fna&oh=2614409cee75699563adab3e27e6b390&oe=60FE27F0",
  "report-tv.al": "https://scontent.ftia14-1.fna.fbcdn.net/v/t1.6435-1/c24.24.192.192a/p240x240/120470242_1692482264246003_6258595772608064212_n.png?_nc_cat=1&ccb=1-3&_nc_sid=dbb9e7&_nc_ohc=8M1Vsbd4T3oAX8M1SIA&_nc_ht=scontent.ftia14-1.fna&oh=82f3cc487d8a118872b95b46eb5b4cd9&oe=60FCA48D",
  "news-31.com": "https://scontent.ftia14-1.fna.fbcdn.net/v/t1.6435-1/p200x200/120131009_4292772534126146_8704740078472765829_n.jpg?_nc_cat=103&ccb=1-3&_nc_sid=dbb9e7&_nc_ohc=MyO8ze9ARCcAX-9oseo&_nc_ht=scontent.ftia14-1.fna&oh=7f1d5c4c8056bfef9057304025cd8aa5&oe=60FD68ED",
  "gazetashqiptare.al": "https://scontent.ftia14-1.fna.fbcdn.net/v/t1.6435-1/p200x200/79891928_1183145948557212_2698226402422947840_n.jpg?_nc_cat=106&ccb=1-3&_nc_sid=dbb9e7&_nc_ohc=-cLV3x3oJWYAX-5OfzI&_nc_ht=scontent.ftia14-1.fna&oh=6bb2cfa24958a736873f5be27d554f26&oe=60FE60EF",
  "mcntv.al": "https://scontent.ftia14-1.fna.fbcdn.net/v/t1.6435-1/p200x200/155848168_156528212967543_2695658733904770727_n.png?_nc_cat=1&ccb=1-3&_nc_sid=dbb9e7&_nc_ohc=dRycCy6BZ2gAX9WUJtR&_nc_ht=scontent.ftia14-1.fna&oh=b8a05cae68c2e40b6fd37d1eea43a1fb&oe=60FE1D74",
  "24lajme.com": "https://scontent.ftia14-1.fna.fbcdn.net/v/t1.6435-1/s200x200/147229577_110498307711761_435967404674579356_n.png?_nc_cat=104&ccb=1-3&_nc_sid=dbb9e7&_nc_ohc=IJFOXwgHwj4AX_XoI2i&_nc_ht=scontent.ftia14-1.fna&oh=27cf9140cdfe12034c3f947087afb052&oe=60FCE3C7",
  "durreslajm.al": "https://scontent.ftia14-1.fna.fbcdn.net/v/t1.6435-1/p200x200/46749904_364923854261873_425225298724782080_n.jpg?_nc_cat=1&ccb=1-3&_nc_sid=dbb9e7&_nc_ohc=YvKOsus7zt4AX-QIE9-&_nc_ht=scontent.ftia14-1.fna&oh=ec7625edb04eb73efb5d4f66e61735e6&oe=60FDA1D7",
  "elbasaninews.tv": "https://scontent.ftia14-1.fna.fbcdn.net/v/t1.6435-1/p200x200/93412177_1549118281931251_1690075390527143936_n.jpg?_nc_cat=105&ccb=1-3&_nc_sid=dbb9e7&_nc_ohc=CIBDHZv4j0IAX_D1VQX&_nc_ht=scontent.ftia14-1.fna&oh=1bf3f6eb449071f47826479d506a7ee4&oe=60FD38DD",
  "sarandanews.com": "https://scontent.ftia14-1.fna.fbcdn.net/v/t1.6435-1/p200x200/87021735_106276214301983_8399577093070913536_n.png?_nc_cat=110&ccb=1-3&_nc_sid=dbb9e7&_nc_ohc=4ZXarbINnDgAX_3lWKm&_nc_ht=scontent.ftia14-1.fna&oh=2e8e39bd38474025803896f6cf8de06c&oe=60FCAEE2",
  "vloranews.al": "https://scontent.ftia14-1.fna.fbcdn.net/v/t1.18169-1/p200x200/21740551_1777274195898773_2249143820431944675_n.png?_nc_cat=1&ccb=1-3&_nc_sid=dbb9e7&_nc_ohc=_biQia0gju4AX-J-6bl&_nc_ht=scontent.ftia14-1.fna&oh=5dd0f431c056b766a71b13c9c6541eb4&oe=60FD1ADA",
  "jugunews.net/gjirokastra/": "https://scontent.ftia14-1.fna.fbcdn.net/v/t31.18172-1/p200x200/29354719_576964512665299_600461475621715285_o.jpg?_nc_cat=111&ccb=1-3&_nc_sid=dbb9e7&_nc_ohc=dF8zQFjWv7sAX9pBflA&_nc_ht=scontent.ftia14-1.fna&oh=d214b08ad900d21d308bd9accb490f7d&oe=611F117B",
  "argjirolajm.net": "https://scontent.ftia14-1.fna.fbcdn.net/v/t1.6435-1/p200x200/217622801_1868322240003663_8814618352088842796_n.jpg?_nc_cat=1&ccb=1-3&_nc_sid=dbb9e7&_nc_ohc=PPl-I3QogtgAX8rnp3C&_nc_ht=scontent.ftia14-1.fna&oh=0b9fe51e9b7f72e0d2ceb84b7a7de00c&oe=60FCFD4C",
  "lezhanews.com": "https://yt3.ggpht.com/ytc/AKedOLTX5iPcAFd-UQAYeZdqLPpORioQsWBwOD-Mx4L_=s88-c-k-c0x00ffffff-no-rj",
  "shkodranews.org": "https://scontent.ftia14-1.fna.fbcdn.net/v/t1.6435-1/p200x200/50074677_2366157260111210_7563234982152372224_n.jpg?_nc_cat=101&ccb=1-3&_nc_sid=dbb9e7&_nc_ohc=hQx0l0PhCcIAX-8zDZL&_nc_ht=scontent.ftia14-1.fna&oh=6c1ab6a62c980362e66d681602311120&oe=60FD9974"
}