{
  "edition": "GR",
  "collection_items": [
    {
      "edition": "GR",
      "source": "xronos.gr",
      "item_type": "collection",
      "category": "category_local_news",
      "base_url": "https://www.xronos.gr",
      "path": "/epikairotita",
      "region": "AnatolikiMakedoniaKaiThraki",
      "content_selector": null,
      "item_selector": {
        "css": [
          "div.views-row"
        ]
      },
      "action_selector": {
        "css": [
          "span a ::attr(href)"
        ]
      },
      "title_selector": {
        "css": [
          "span a ::text"
        ]
      },
      "image_selector": {
        "css": [
          "img::attr(src)"
        ]
      }
    },
    {
      "edition": "GR",
      "source": "komotinipress.gr",
      "item_type": "collection",
      "category": "category_local_news",
      "base_url": "https://www.komotinipress.gr",
      "path": "/category/eidiseis/koinonia/",
      "region": "AnatolikiMakedoniaKaiThraki",
      "content_selector": null,
      "item_selector": {
        "css": [
          "div.post-item"
        ]
      },
      "action_selector": {
        "css": [
          "h2 a ::attr(href)"
        ]
      },
      "title_selector": {
        "css": [
          "h2 a ::text"
        ]
      },
      "image_selector": {
        "css": [
          "img::attr(src)"
        ]
      }
    },
    {
      "edition": "GR",
      "source": "empros.gr",
      "item_type": "collection",
      "category": "category_local_news",
      "base_url": "https://empros.gr",
      "path": "/category/koinonia/topika-nea-koinonia/",
      "region": "AnatolikiMakedoniaKaiThraki",
      "content_selector": null,
      "item_selector": {
        "css": [
          "div.block-article"
        ]
      },
      "action_selector": {
        "css": [
          "h2 a ::attr(href)"
        ]
      },
      "title_selector": {
        "css": [
          "a span ::text"
        ]
      },
      "image_selector": {
        "css": [
          "img::attr(src)"
        ]
      }
    },
    {
      "edition": "GR",
      "source": "inkomotini.news",
      "item_type": "collection",
      "category": "category_local_news",
      "base_url": "https://inkomotini.news",
      "path": "/category/politismos/",
      "region": "AnatolikiMakedoniaKaiThraki",
      "content_selector": null,
      "item_selector": {
        "css": [
          "div.td-big-grid-post"
        ]
      },
      "action_selector": {
        "css": [
          "h3 a::attr(href)"
        ]
      },
      "title_selector": {
        "css": [
          "h3 a::text"
        ]
      },
      "image_selector": {
        "css": [
          "img::attr(data-img-url)"
        ]
      }
    },
    {
      "edition": "GR",
      "source": "e-evros.gr",
      "item_type": "collection",
      "category": "category_local_news",
      "base_url": "https://www.e-evros.gr",
      "path": "/gr/diaskedash-politismos/4",
      "region": "AnatolikiMakedoniaKaiThraki",
      "content_selector": null,
      "item_selector": {
        "css": [
          "div.col"
        ]
      },
      "action_selector": {
        "css": [
          "div a::attr(href)"
        ]
      },
      "title_selector": {
        "css": [
          "div a::text"
        ]
      },
      "image_selector": {
        "css": [
          "img::attr(src)"
        ]
      }
    },
    {
      "edition": "GR",
      "source": "pireasnews.gr",
      "item_type": "collection",
      "category": "category_local_news",
      "base_url": "https://www.pireasnews.gr",
      "path": "/category/politiki/",
      "region": "Attiki",
      "content_selector": null,
      "item_selector": {
        "css": [
          "article.post"
        ]
      },
      "action_selector": {
        "css": [
          "h2 a::attr(href)"
        ]
      },
      "title_selector": {
        "css": [
          "h2 a::text"
        ]
      },
      "image_selector": {
        "css": [
          "img::attr(data-src)"
        ]
      }
    },
    {
      "edition": "GR",
      "source": "kifisiapress.info",
      "item_type": "collection",
      "category": "category_local_news",
      "base_url": "https://kifisiapress.info",
      "path": "/category/ειδήσεις/τοπική-αυτοδιοίκηση/γενικά/",
      "region": "Attiki",
      "content_selector": null,
      "item_selector": {
        "css": [
          "div.td_module_10"
        ]
      },
      "action_selector": {
        "css": [
          "h3 a::attr(href)"
        ]
      },
      "title_selector": {
        "css": [
          "h3 a::text"
        ]
      },
      "image_selector": {
        "css": [
          "img::attr(src)"
        ]
      }
    },
    {
      "edition": "GR",
      "source": "athinapoli.gr",
      "item_type": "collection",
      "category": "category_local_news",
      "base_url": "https://athinapoli.gr",
      "path": "/category/news/",
      "region": "Attiki",
      "content_selector": null,
      "item_selector": {
        "css": [
          "article"
        ]
      },
      "action_selector": {
        "css": [
          "h2 a::attr(href)"
        ]
      },
      "title_selector": {
        "css": [
          "h2 a::text"
        ]
      },
      "image_selector": {
        "css": [
          "img::attr(src)"
        ]
      }
    },
    {
      "edition": "GR",
      "source": "doxthi.gr",
      "item_type": "collection",
      "category": "category_local_news",
      "base_url": "https://doxthi.gr",
      "path": "/category/local-news/fyli-ano-liosia-zefyri/",
      "region": "Attiki",
      "content_selector": null,
      "item_selector": {
        "css": [
          "div.td-module-container"
        ]
      },
      "action_selector": {
        "css": [
          "h3 a::attr(href)"
        ]
      },
      "title_selector": {
        "css": [
          "h3 a::text"
        ]
      },
      "image_selector": {
        "css": [
          "span::attr(data-img-url)"
        ]
      }
    },
    {
      "edition": "GR",
      "source": "glyfada24.gr",
      "item_type": "collection",
      "category": "category_local_news",
      "base_url": "https://www.glyfada24.gr",
      "path": "/index.php/politics",
      "region": "Attiki",
      "content_selector": null,
      "item_selector": {
        "css": [
          "div.itemContainer"
        ]
      },
      "action_selector": {
        "css": [
          "h2 a::attr(href)"
        ]
      },
      "title_selector": {
        "css": [
          "h2 a::text"
        ]
      },
      "image_selector": {
        "css": [
          "img::attr(src)"
        ]
      }
    },
    {
      "edition": "GR",
      "source": "aixmi-news.gr",
      "item_type": "collection",
      "category": "category_local_news",
      "base_url": "https://www.aixmi-news.gr",
      "path": "/reportaz",
      "region": "DytikiEllada",
      "content_selector": null,
      "item_selector": {
        "css": [
          "div.itemContainer"
        ]
      },
      "action_selector": {
        "css": [
          "h3.catItemTitle a::attr(href)"
        ]
      },
      "title_selector": {
        "css": [
          "h3.catItemTitle a::text"
        ]
      },
      "image_selector": {
        "css": [
          "img::attr(src)"
        ]
      }
    },
    {
      "edition": "GR",
      "source": "patrisnews.com",
      "item_type": "collection",
      "category": "category_local_news",
      "base_url": "https://www.patrisnews.com",
      "path": "/perifereia-dytikis-elladas/",
      "region": "DytikiEllada",
      "content_selector": null,
      "item_selector": {
        "css": [
          "article.clearfix"
        ]
      },
      "action_selector": {
        "css": [
          "h2 a::attr(href)"
        ]
      },
      "title_selector": {
        "css": [
          "h2 a::text"
        ]
      },
      "image_selector": {
        "css": [
          "img::attr(src)"
        ]
      }
    },
    {
      "edition": "GR",
      "source": "inkefalonia.gr",
      "item_type": "collection",
      "category": "category_local_news",
      "base_url": "https://www.inkefalonia.gr",
      "path": "/koinonia",
      "region": "IoniaiNisoi",
      "content_selector": null,
      "item_selector": {
        "css": [
          "div.itemContainer"
        ]
      },
      "action_selector": {
        "css": [
          "h4 a::attr(href)"
        ]
      },
      "title_selector": {
        "css": [
          "h4 a::text"
        ]
      },
      "image_selector": {
        "css": [
          "img::attr(src)"
        ]
      }
    },
    {
      "edition": "GR",
      "source": "ekefalonia.gr",
      "item_type": "collection",
      "category": "category_local_news",
      "base_url": "https://ekefalonia.gr",
      "path": "/category/politics/",
      "region": "IoniaiNisoi",
      "content_selector": null,
      "item_selector": {
        "css": [
          "div.popS"
        ]
      },
      "action_selector": {
        "css": [
          "div a::attr(href)"
        ]
      },
      "title_selector": {
        "css": [
          "div a::text"
        ]
      },
      "image_selector": {
        "css": [
          "img::attr(src)"
        ]
      }
    },
    {
      "edition": "GR",
      "source": "imerazante.gr",
      "item_type": "collection",
      "category": "category_local_news",
      "base_url": "https://www.imerazante.gr",
      "path": "/imera/koinonia",
      "region": "IoniaiNisoi",
      "content_selector": null,
      "item_selector": {
        "css": [
          "div.post-item"
        ]
      },
      "action_selector": {
        "css": [
          "h3 a::attr(href)"
        ]
      },
      "title_selector": {
        "css": [
          "h3 a::text"
        ]
      },
      "image_selector": {
        "css": [
          "img::attr(src)"
        ]
      }
    },
    {
      "edition": "GR",
      "source": "lefkadapress.gr",
      "item_type": "collection",
      "category": "category_local_news",
      "base_url": "https://lefkadapress.gr",
      "path": "/category/social/",
      "region": "IoniaiNisoi",
      "content_selector": null,
      "item_selector": {
        "css": [
          "article.post-wrap"
        ]
      },
      "action_selector": {
        "css": [
          "h2 a::attr(href)"
        ]
      },
      "title_selector": {
        "css": [
          "h2 a::text"
        ]
      },
      "image_selector": {
        "css": [
          "img::attr(src)"
        ]
      }
    },
    {
      "edition": "GR",
      "source": "neoiagones.gr",
      "item_type": "collection",
      "category": "category_local_news",
      "base_url": "https://neoiagones.gr",
      "path": "/category/epikairotita/",
      "region": "Ipeiros",
      "content_selector": null,
      "item_selector": {
        "css": [
          "article.jeg_post"
        ]
      },
      "action_selector": {
        "css": [
          "h2 a::attr(href)", "h3 a::attr(href)"
        ]
      },
      "title_selector": {
        "css": [
          "h2 a::text", "h3 a::text"
        ]
      },
      "image_selector": {
        "css": [
          "div::attr(data-src)", "img::attr(data-src)"
        ]
      }
    },
    {
      "edition": "GR",
      "source": "proinanea.gr",
      "item_type": "collection",
      "category": "category_local_news",
      "base_url": "https://www.proinanea.gr",
      "path": "/category/news/",
      "region": "Ipeiros",
      "content_selector": null,
      "item_selector": {
        "css": [
          "article.post"
        ]
      },
      "action_selector": {
        "css": [
          "h2 a::attr(href)"
        ]
      },
      "title_selector": {
        "css": [
          "h2 a::text"
        ]
      },
      "image_selector": {
        "css": [
          "img::attr(src)"
        ]
      }
    },
    {
      "edition": "GR",
      "source": "epiruspost.gr",
      "item_type": "collection",
      "category": "category_local_news",
      "base_url": "https://www.epiruspost.gr",
      "path": "/category/koinonia/",
      "region": "Ipeiros",
      "content_selector": null,
      "item_selector": {
        "css": [
          "article.post"
        ]
      },
      "action_selector": {
        "css": [
          "h3 a::attr(href)"
        ]
      },
      "title_selector": {
        "css": [
          "h3 a::text"
        ]
      },
      "image_selector": {
        "css": [
          "img::attr(src)"
        ]
      }
    },
    {
      "edition": "GR",
      "source": "ipeirotika.gr",
      "item_type": "collection",
      "category": "category_local_news",
      "base_url": "https://ipeirotika.gr",
      "path": "/category/epikairotita/",
      "region": "Ipeiros",
      "content_selector": null,
      "item_selector": {
        "css": [
          "div.post"
        ]
      },
      "action_selector": {
        "css": [
          "h1 a::attr(href)"
        ]
      },
      "title_selector": {
        "css": [
          "h1 a::text"
        ]
      },
      "image_selector": {
        "css": [
          "img::attr(src)"
        ]
      }
    },
    {
      "edition": "GR",
      "source": "proinanea.gr",
      "item_type": "collection",
      "category": "category_local_news",
      "base_url": "https://www.proinanea.gr",
      "path": "/category/news/",
      "region": "Ipeiros",
      "content_selector": null,
      "item_selector": {
        "css": [
          "article.post"
        ]
      },
      "action_selector": {
        "css": [
          "h2 a::attr(href)"
        ]
      },
      "title_selector": {
        "css": [
          "h2 a::text"
        ]
      },
      "image_selector": {
        "css": [
          "img::attr(src)"
        ]
      }
    },
    {
      "edition": "GR",
      "source": "mysalonika.gr",
      "item_type": "collection",
      "category": "category_local_news",
      "base_url": "https://mysalonika.gr",
      "path": "/category/sinentefxis/",
      "region": "KentrikiMakedonia",
      "content_selector": null,
      "item_selector": {
        "css": [
          "article.jeg_post"
        ]
      },
      "action_selector": {
        "css": [
          "h2 a::attr(href)", "h3 a::attr(href)"
        ]
      },
      "title_selector": {
        "css": [
          "h2 a::text", "h3 a::text"
        ]
      },
      "image_selector": {
        "css": [
          "div::attr(data-src)", "img::attr(data-src)"
        ]
      }
    },
    {
      "edition": "GR",
      "source": "grtimes.gr",
      "item_type": "collection",
      "category": "category_local_news",
      "base_url": "https://www.grtimes.gr",
      "path": "/roi-eidiseon",
      "region": "KentrikiMakedonia",
      "content_selector": null,
      "item_selector": {
        "css": [
          "div.col-md-6"
        ]
      },
      "action_selector": {
        "css": [
          "div.text_wrapper_title a::attr(href)"
        ]
      },
      "title_selector": {
        "css": [
          "div.text_wrapper_title a::text"
        ]
      },
      "image_selector": {
        "css": [
          "img::attr(src)"
        ]
      }
    },
    {
      "edition": "GR",
      "source": "media-news.gr",
      "item_type": "collection",
      "category": "category_local_news",
      "base_url": "https://www.media-news.gr",
      "path": "/category/dytiki-makedonia/",
      "region": "KentrikiMakedonia",
      "content_selector": null,
      "item_selector": {
        "css": [
          "li"
        ]
      },
      "action_selector": {
        "css": [
          "div a::attr(href)"
        ]
      },
      "title_selector": {
        "css": [
          "a h2::text"
        ]
      },
      "image_selector": {
        "css": [
          "img::attr(src)"
        ]
      }
    },
    {
      "edition": "GR",
      "source": "ergoxalkidikis.gr",
      "item_type": "collection",
      "category": "category_local_news",
      "base_url": "https://ergoxalkidikis.gr",
      "path": "/category/news",
      "region": "KentrikiMakedonia",
      "content_selector": null,
      "item_selector": {
        "css": [
          "article.post"
        ]
      },
      "action_selector": {
        "css": [
          "h2 a::attr(href)"
        ]
      },
      "title_selector": {
        "css": [
          "h2 a::text"
        ]
      },
      "image_selector": {
        "css": [
          "img::attr(src)"
        ]
      }
    },
    {
      "edition": "GR",
      "source": "ditiki.gr",
      "item_type": "collection",
      "category": "category_local_news",
      "base_url": "https://ditiki.gr",
      "path": "/category/politiki/",
      "region": "KentrikiMakedonia",
      "content_selector": null,
      "item_selector": {
        "css": [
          "li.infinite-post"
        ]
      },
      "action_selector": {
        "css": [
          "li.infinite-post a::attr(href)"
        ]
      },
      "title_selector": {
        "css": [
          "div h2::text"
        ]
      },
      "image_selector": {
        "css": [
          "img::attr(src)"
        ]
      }
    },
    {
      "edition": "GR",
      "source": "anatolh.com",
      "item_type": "collection",
      "category": "category_local_news",
      "base_url": "https://www.anatolh.com",
      "path": "/category/topikanea/agiosnikolaos/",
      "region": "Kriti",
      "content_selector": null,
      "item_selector": {
        "css": [
          "div.td-big-grid-post"
        ]
      },
      "action_selector": {
        "css": [
          "h3 a::attr(href)"
        ]
      },
      "title_selector": {
        "css": [
          "h3 a::text"
        ]
      },
      "image_selector": {
        "css": [
          "img::attr(src)"
        ]
      }
    },
    {
      "edition": "GR",
      "source": "haniotika-nea.gr",
      "item_type": "collection",
      "category": "category_local_news",
      "base_url": "https://www.haniotika-nea.gr",
      "path": "/category/news/politismo/",
      "region": "Kriti",
      "content_selector": null,
      "item_selector": {
        "css": [
          "div.td-module-container"
        ]
      },
      "action_selector": {
        "css": [
          "h3 a::attr(href)"
        ]
      },
      "title_selector": {
        "css": [
          "h3 a::text"
        ]
      },
      "image_selector": {
        "css": [
          "span::attr(data-img-url)"
        ]
      }
    },
    {
      "edition": "GR",
      "source": "cretapost.gr",
      "item_type": "collection",
      "category": "category_local_news",
      "base_url": "https://www.cretapost.gr",
      "path": "/category/crete/",
      "region": "Kriti",
      "content_selector": null,
      "item_selector": {
        "css": [
          "div.Cretapost-post-box--medium"
        ]
      },
      "action_selector": {
        "css": [
          "h3 a::attr(href)"
        ]
      },
      "title_selector": {
        "css": [
          "h3 a::text"
        ]
      },
      "image_selector": {
        "css": [
          "img::attr(src)"
        ]
      }
    },
    {
      "edition": "GR",
      "source": "zarpanews.gr",
      "item_type": "collection",
      "category": "category_local_news",
      "base_url": "https://www.zarpanews.gr",
      "path": "/category/kriti/",
      "region": "Kriti",
      "content_selector": null,
      "item_selector": {
        "css": [
          "div.td_module_11"
        ]
      },
      "action_selector": {
        "css": [
          "h3 a::attr(href)"
        ]
      },
      "title_selector": {
        "css": [
          "h3 a::text"
        ]
      },
      "image_selector": {
        "css": [
          "img::attr(src)"
        ]
      }
    },
    {
      "edition": "GR",
      "source": "pelop.gr",
      "item_type": "collection",
      "category": "category_local_news",
      "base_url": "https://pelop.gr",
      "path": "/category/local-news/",
      "region": "Peloponnisos",
      "content_selector": null,
      "item_selector": {
        "css": [
          "div.article"
        ]
      },
      "action_selector": {
        "css": [
          "h3 a::attr(href)"
        ]
      },
      "title_selector": {
        "css": [
          "h3 a::text"
        ]
      },
      "image_selector": {
        "css": [
          "img::attr(src)"
        ]
      }
    },
    {
      "edition": "GR",
      "source": "tempo24.news",
      "item_type": "collection",
      "category": "category_local_news",
      "base_url": "https://tempo24.news",
      "path": "/eidiseis/patra-dytikh-ellada",
      "region": "Peloponnisos",
      "content_selector": null,
      "item_selector": {
        "css": [
          "div.row"
        ]
      },
      "action_selector": {
        "css": [
          "h3 a::attr(href)"
        ]
      },
      "title_selector": {
        "css": [
          "h3 a::text"
        ]
      },
      "image_selector": {
        "css": [
          "img::attr(src)"
        ]
      }
    },
    {
      "edition": "GR",
      "source": "protinews.com.gr",
      "item_type": "collection",
      "category": "category_local_news",
      "base_url": "https://www.protinews.com.gr",
      "path": "/category/koinonia/",
      "region": "Peloponnisos",
      "content_selector": null,
      "item_selector": {
        "css": [
          "div.tdb_module_loop"
        ]
      },
      "action_selector": {
        "css": [
          "h3 a::attr(href)"
        ]
      },
      "title_selector": {
        "css": [
          "h3 a::text"
        ]
      },
      "image_selector": {
        "css": [
          "span::attr(data-img-url)"
        ]
      }
    },
    {
      "edition": "GR",
      "source": "spartavoice.gr",
      "item_type": "collection",
      "category": "category_local_news",
      "base_url": "https://www.spartavoice.gr",
      "path": "/περιφέρεια-πελοποννήσου/",
      "region": "Peloponnisos",
      "content_selector": null,
      "item_selector": {
        "css": [
          "div.col-md-4"
        ]
      },
      "action_selector": {
        "css": [
          "h4 a::attr(href)"
        ]
      },
      "title_selector": {
        "css": [
          "h4 a::text"
        ]
      },
      "image_selector": {
        "css": [
          "img::attr(src)"
        ]
      }
    },
    {
      "edition": "GR",
      "source": "korinthiannews.gr",
      "item_type": "collection",
      "category": "category_local_news",
      "base_url": "https://korinthiannews.gr",
      "path": "/category/protoselida/",
      "region": "Peloponnisos",
      "content_selector": null,
      "item_selector": {
        "css": [
          "div.td_module_10"
        ]
      },
      "action_selector": {
        "css": [
          "h3 a::attr(href)"
        ]
      },
      "title_selector": {
        "css": [
          "h3 a::text"
        ]
      },
      "image_selector": {
        "css": [
          "img::attr(src)"
        ]
      }
    },
    {
      "edition": "GR",
      "source": "ekorinthos.gr",
      "item_type": "collection",
      "category": "category_local_news",
      "base_url": "https://ekorinthos.gr",
      "path": "/category/politics/",
      "region": "Peloponnisos",
      "content_selector": null,
      "item_selector": {
        "css": [
          "div.td_module_19"
        ]
      },
      "action_selector": {
        "css": [
          "h3 a::attr(href)"
        ]
      },
      "title_selector": {
        "css": [
          "h3 a::text"
        ]
      },
      "image_selector": {
        "css": [
          "img::attr(data-img-url)"
        ]
      }
    },
    {
      "edition": "GR",
      "source": "messiniapress.gr",
      "item_type": "collection",
      "category": "category_local_news",
      "base_url": "https://messiniapress.gr",
      "path": "/category/politiki/",
      "region": "Peloponnisos",
      "content_selector": null,
      "item_selector": {
        "css": [
          "article.post"
        ]
      },
      "action_selector": {
        "css": [
          "h2 a::attr(href)"
        ]
      },
      "title_selector": {
        "css": [
          "h2 a::text"
        ]
      },
      "image_selector": {
        "css": [
          "img::attr(src)"
        ]
      }
    },
    {
      "edition": "GR",
      "source": "lamianow.gr",
      "item_type": "collection",
      "category": "category_local_news",
      "base_url": "https://lamianow.gr",
      "path": "/category/topika-nea/",
      "region": "StereaEllada",
      "content_selector": null,
      "item_selector": {
        "css": [
          "div.list-box"
        ]
      },
      "action_selector": {
        "css": [
          "h3 a::attr(href)"
        ]
      },
      "title_selector": {
        "css": [
          "h3 a::text"
        ]
      },
      "image_selector": {
        "css": [
          "img::attr(src)"
        ]
      }
    },
    {
      "edition": "GR",
      "source": "palmosev.gr",
      "item_type": "collection",
      "category": "category_local_news",
      "base_url": "https://www.palmosev.gr",
      "path": "/category/arthra/",
      "region": "StereaEllada",
      "content_selector": null,
      "item_selector": {
        "css": [
          "article.post"
        ]
      },
      "action_selector": {
        "css": [
          "h3 a::attr(href)"
        ]
      },
      "title_selector": {
        "css": [
          "h3 a::text"
        ]
      },
      "image_selector": {
        "css": [
          "img::attr(src)"
        ]
      }
    },
    {
      "edition": "GR",
      "source": "aixmi-news.gr",
      "item_type": "collection",
      "category": "category_local_news",
      "base_url": "https://www.aixmi-news.gr",
      "path": "/reportaz",
      "region": "StereaEllada",
      "content_selector": null,
      "item_selector": {
        "css": [
          "div.catItemView"
        ]
      },
      "action_selector": {
        "css": [
          "h3 a::attr(href)"
        ]
      },
      "title_selector": {
        "css": [
          "h3 a::text"
        ]
      },
      "image_selector": {
        "css": [
          "img::attr(src)"
        ]
      }
    },
    {
      "edition": "GR",
      "source": "lamiakos-typos.gr",
      "item_type": "collection",
      "category": "category_local_news",
      "base_url": "http://www.lamiakos-typos.gr",
      "path": "/local",
      "region": "StereaEllada",
      "content_selector": null,
      "item_selector": {
        "css": [
          "article.node-article"
        ]
      },
      "action_selector": {
        "css": [
          "h2 a::attr(href)"
        ]
      },
      "title_selector": {
        "css": [
          "h2 a::text"
        ]
      },
      "image_selector": {
        "css": [
          "img::attr(src)"
        ]
      }
    },
    {
      "edition": "GR",
      "source": "messolonghinews.gr",
      "item_type": "collection",
      "category": "category_local_news",
      "base_url": "https://messolonghinews.gr",
      "path": "/κοινωνία-2/",
      "region": "StereaEllada",
      "content_selector": null,
      "item_selector": {
        "css": [
          "article.post"
        ]
      },
      "action_selector": {
        "css": [
          "h2 a::attr(href)"
        ]
      },
      "title_selector": {
        "css": [
          "h2 a::text"
        ]
      },
      "image_selector": {
        "css": [
          "img::attr(src)"
        ]
      }
    },
    {
      "edition": "GR",
      "source": "egnomi.gr",
      "item_type": "collection",
      "category": "category_local_news",
      "base_url": "https://www.egnomi.gr",
      "path": "/category/6/politiki.html",
      "region": "StereaEllada",
      "content_selector": null,
      "item_selector": {
        "css": [
          "div.greycontainer-inside"
        ]
      },
      "action_selector": {
        "css": [
          "h3 a::attr(href)"
        ]
      },
      "title_selector": {
        "css": [
          "a span::text"
        ]
      },
      "image_selector": {
        "css": [
          "img::attr(src)"
        ]
      }
    },
    {
      "edition": "GR",
      "source": "kosmoslarissa.gr",
      "item_type": "collection",
      "category": "category_local_news",
      "base_url": "https://www.kosmoslarissa.gr",
      "path": "/category/topika",
      "region": "Thessalia",
      "content_selector": null,
      "item_selector": {
        "css": [
          "article.blog-post"
        ]
      },
      "action_selector": {
        "css": [
          "div a::attr(href)"
        ]
      },
      "title_selector": {
        "css": [
          "div a::text"
        ]
      },
      "image_selector": {
        "css": [
          "img::attr(src)"
        ]
      }
    },
    {
      "edition": "GR",
      "source": "trikalaola.gr",
      "item_type": "collection",
      "category": "category_local_news",
      "base_url": "https://www.trikalaola.gr",
      "path": "/category/Τοπικά/",
      "region": "Thessalia",
      "content_selector": null,
      "item_selector": {
        "css": [
          "div.td-module-container"
        ]
      },
      "action_selector": {
        "css": [
          "h3 a::attr(href)"
        ]
      },
      "title_selector": {
        "css": [
          "h3 a::text"
        ]
      },
      "image_selector": {
        "css": [
          "span::attr(style)"
        ]
      }
    },
    {
      "edition": "GR",
      "source": "tameteora.gr",
      "item_type": "collection",
      "category": "category_local_news",
      "base_url": "https://www.tameteora.gr",
      "path": "/category/topika/",
      "region": "Thessalia",
      "content_selector": null,
      "item_selector": {
        "css": [
          "div.td-module-container"
        ]
      },
      "action_selector": {
        "css": [
          "h3 a::attr(href)"
        ]
      },
      "title_selector": {
        "css": [
          "h3 a::text"
        ]
      },
      "image_selector": {
        "css": [
          "span::attr(style)"
        ]
      }
    },
    {
      "edition": "GR",
      "source": "stagonnews.gr",
      "item_type": "collection",
      "category": "category_local_news",
      "base_url": "https://www.stagonnews.gr",
      "path": "/category/topika/",
      "region": "Thessalia",
      "content_selector": null,
      "item_selector": {
        "css": [
          "article.entry"
        ]
      },
      "action_selector": {
        "css": [
          "h2 a::attr(href)"
        ]
      },
      "title_selector": {
        "css": [
          "h2 a::text"
        ]
      },
      "image_selector": {
        "css": [
          "img::attr(src)"
        ]
      }
    },
    {
      "edition": "GR",
      "source": "trikalanews.gr",
      "item_type": "collection",
      "category": "category_local_news",
      "base_url": "https://www.trikalanews.gr",
      "path": "/category/thessalia/",
      "region": "Thessalia",
      "content_selector": null,
      "item_selector": {
        "css": [
          "article.post"
        ]
      },
      "action_selector": {
        "css": [
          "h3 a::attr(href)"
        ]
      },
      "title_selector": {
        "css": [
          "h3 a::text"
        ]
      },
      "image_selector": {
        "css": [
          "img::attr(data-src)"
        ]
      }
    },
    {
      "edition": "GR",
      "source": "newsvolos.com",
      "item_type": "collection",
      "category": "category_local_news",
      "base_url": "https://www.newsvolos.com",
      "path": "/category/ελλαδα/",
      "region": "Thessalia",
      "content_selector": null,
      "item_selector": {
        "css": [
          "div.td-block-span6"
        ]
      },
      "action_selector": {
        "css": [
          "h3 a::attr(href)"
        ]
      },
      "title_selector": {
        "css": [
          "h3 a::text"
        ]
      },
      "image_selector": {
        "css": [
          "img::attr(data-img-url)"
        ]
      }
    },
    {
      "edition": "GR",
      "source": "thessalianews.gr",
      "item_type": "collection",
      "category": "category_local_news",
      "base_url": "https://www.thessalianews.gr",
      "path": "/category/politismos",
      "region": "Thessalia",
      "content_selector": null,
      "item_selector": {
        "css": [
          "li"
        ]
      },
      "action_selector": {
        "css": [
          "h5 a::attr(href)"
        ]
      },
      "title_selector": {
        "css": [
          "h5 a::text"
        ]
      },
      "image_selector": {
        "css": [
          "img::attr(src)"
        ]
      }
    },
    {
      "edition": "GR",
      "source": "onlarissa.gr",
      "item_type": "collection",
      "category": "category_local_news",
      "base_url": "https://www.onlarissa.gr",
      "path": "/category/thessaly/",
      "region": "Thessalia",
      "content_selector": null,
      "item_selector": {
        "css": [
          "li.post-item"
        ]
      },
      "action_selector": {
        "css": [
          "h3 a::attr(href)"
        ]
      },
      "title_selector": {
        "css": [
          "h3 a::text"
        ]
      },
      "image_selector": {
        "css": [
          "img::attr(src)"
        ]
      }
    },
    {
      "edition": "GR",
      "source": "chiosnews.com",
      "item_type": "collection",
      "category": "category_local_news",
      "base_url": "https://chiosnews.com",
      "path": "/category/nea/topika/",
      "region": "Aigaio",
      "content_selector": null,
      "item_selector": {
        "css": [
          "div.td-big-grid-post"
        ]
      },
      "action_selector": {
        "css": [
          "h3 a::attr(href)"
        ]
      },
      "title_selector": {
        "css": [
          "h3 a::text"
        ]
      },
      "image_selector": {
        "css": [
          "img::attr(data-img-url)"
        ]
      }
    },
    {
      "edition": "GR",
      "source": "emprosnet.gr",
      "item_type": "collection",
      "category": "category_local_news",
      "base_url": "https://www.emprosnet.gr",
      "path": "/koinonia",
      "region": "Aigaio",
      "content_selector": null,
      "item_selector": {
        "css": [
          "div.itemContainer"
        ]
      },
      "action_selector": {
        "css": [
          "h3 a::attr(href)"
        ]
      },
      "title_selector": {
        "css": [
          "h3 a::text"
        ]
      },
      "image_selector": {
        "css": [
          "img::attr(data-src)"
        ]
      }
    },
    {
      "edition": "GR",
      "source": "ikarianews.gr",
      "item_type": "collection",
      "category": "category_local_news",
      "base_url": "https://ikarianews.gr",
      "path": "/archives/category/greece",
      "region": "Aigaio",
      "content_selector": null,
      "item_selector": {
        "css": [
          "div.post"
        ]
      },
      "action_selector": {
        "css": [
          "h2 a::attr(href)"
        ]
      },
      "title_selector": {
        "css": [
          "h2 a::text"
        ]
      },
      "image_selector": {
        "css": [
          "a::attr(style)"
        ]
      }
    },
    {
      "edition": "GR",
      "source": "dimokratiki.gr",
      "item_type": "collection",
      "category": "category_local_news",
      "base_url": "https://www.dimokratiki.gr",
      "path": "/category/local-news/",
      "region": "Aigaio",
      "content_selector": null,
      "item_selector": {
        "css": [
          "article.post"
        ]
      },
      "action_selector": {
        "css": [
          "h3 a::attr(href)"
        ]
      },
      "title_selector": {
        "css": [
          "h3 a::text"
        ]
      },
      "image_selector": {
        "css": [
          "img::attr(src)"
        ]
      }
    },
    {
      "edition": "GR",
      "source": "kosnews24.gr",
      "item_type": "collection",
      "category": "category_local_news",
      "base_url": "https://www.kosnews24.gr",
      "path": "/politika",
      "region": "Aigaio",
      "content_selector": null,
      "item_selector": {
        "css": [
          "div.newsfeed-item"
        ]
      },
      "action_selector": {
        "css": [
          "h4 a::attr(href)"
        ]
      },
      "title_selector": {
        "css": [
          "h4 a::text"
        ]
      },
      "image_selector": {
        "css": [
          "img::attr(src)"
        ]
      }
    }
  ],
  "frontpage_items": [
    {
      "edition": "GR",
      "source": "xronos.gr",
      "item_type": "front_page",
      "category": "category_local_news",
      "base_url": "https://www.xronos.gr",
      "path": "/",
      "region": "AnatolikiMakedoniaKaiThraki",
      "main_item": null,
      "secondary_item": {
        "content": {
          "css": [
            "div.front_sort_divs"
          ]
        },
        "action_selector": {
          "css": [
            "div a::attr(href)"
          ]
        },
        "title_selector": {
          "css": [
            "div a ::text"
          ]
        },
        "image_selector": {
          "css": [
            "img::attr(src)"
          ]
        }
      }
    },
    {
      "edition": "GR",
      "source": "komotinipress.gr",
      "item_type": "front_page",
      "category": "category_local_news",
      "base_url": "https://www.komotinipress.gr",
      "path": "/",
      "region": "AnatolikiMakedoniaKaiThraki",
      "main_item": null,
      "secondary_item": {
        "content": {
          "css": [
            "div.column"
          ]
        },
        "action_selector": {
          "css": [
            "div a::attr(href)"
          ]
        },
        "title_selector": {
          "css": [
            "div h2 ::text"
          ]
        },
        "image_selector": {
          "css": [
            "div.news-img::attr(style)"
          ]
        }
      }
    },
    {
      "edition": "GR",
      "source": "empros.gr",
      "item_type": "front_page",
      "category": "category_local_news",
      "base_url": "http://empros.gr",
      "path": "/",
      "region": "AnatolikiMakedoniaKaiThraki",
      "main_item": null,
      "secondary_item": {
        "content": {
          "css": [
            "div.big-grid"
          ]
        },
        "action_selector": {
          "css": [
            "h2 a::attr(href)"
          ]
        },
        "title_selector": {
          "css": [
            "h2 a::text"
          ]
        },
        "image_selector": {
          "css": [
            "a::attr(style)"
          ]
        }
      }
    },
    {
      "edition": "GR",
      "source": "inkomotini.news",
      "item_type": "front_page",
      "category": "category_local_news",
      "base_url": "https://inkomotini.news",
      "path": "/",
      "region": "AnatolikiMakedoniaKaiThraki",
      "main_item": null,
      "secondary_item": {
        "content": {
          "css": [
            "div.td_module_slide"
          ]
        },
        "action_selector": {
          "css": [
            "h3 a::attr(href)"
          ]
        },
        "title_selector": {
          "css": [
            "h3 a::text"
          ]
        },
        "image_selector": {
          "css": [
            "span::attr(data-img-url)"
          ]
        }
      }
    },
    {
      "edition": "GR",
      "source": "e-evros.gr",
      "item_type": "front_page",
      "category": "category_local_news",
      "base_url": "https://www.e-evros.gr",
      "path": "/",
      "region": "AnatolikiMakedoniaKaiThraki",
      "main_item": null,
      "secondary_item": {
        "content": {
          "css": [
            "div.carousel-item"
          ]
        },
        "action_selector": {
          "css": [
            "div a::attr(href)"
          ]
        },
        "title_selector": {
          "css": [
            "div a::text"
          ]
        },
        "image_selector": {
          "css": [
            "img::attr(src)"
          ]
        }
      }
    },
    {
      "edition": "GR",
      "source": "pireasnews.gr",
      "item_type": "front_page",
      "category": "category_local_news",
      "base_url": "https://www.pireasnews.gr",
      "path": "/",
      "region": "Attiki",
      "main_item": null,
      "secondary_item": {
        "content": {
          "css": [
            "li"
          ]
        },
        "action_selector": {
          "css": [
            "h3 a::attr(href)"
          ]
        },
        "title_selector": {
          "css": [
            "h3 a::text"
          ]
        },
        "image_selector": {
          "css": [
            "img::attr(data-src)"
          ]
        }
      }
    },
    {
      "edition": "GR",
      "source": "athinapoli.gr",
      "item_type": "front_page",
      "category": "category_local_news",
      "base_url": "https://athinapoli.gr",
      "path": "/",
      "region": "Attiki",
      "main_item": {
        "content": {
          "css": [
            "li"
          ]
        },
        "action_selector": {
          "css": [
            "div a::attr(href)"
          ]
        },
        "title_selector": {
          "css": [
            "a div.slide-title::text"
          ]
        },
        "image_selector": {
          "css": [
            "img::attr(src)"
          ]
        }
      },
      "secondary_item": {
        "content": {
          "css": [
            "div.beside-post"
          ]
        },
        "action_selector": {
          "css": [
            "h3 a::attr(href)"
          ]
        },
        "title_selector": {
          "css": [
            "h3 a::text"
          ]
        },
        "image_selector": {
          "css": [
            "img::attr(src)"
          ]
        }
      }
    },
       {
      "edition": "GR",
      "source": "kifisiapress.info",
      "item_type": "front_page",
      "category": "category_local_news",
      "base_url": "https://kifisiapress.info",
      "path": "/",
      "region": "Attiki",
      "main_item": null,
      "secondary_item": {
        "content": {
          "css": [
            "div.td-big-grid-post"
          ]
        },
        "action_selector": {
          "css": [
            "h3 a::attr(href)"
          ]
        },
        "title_selector": {
          "css": [
            "h3 a::text"
          ]
        },
        "image_selector": {
          "css": [
            "img::attr(src)"
          ]
        }
      }
    },
    {
      "edition": "GR",
      "source": "doxthi.gr",
      "item_type": "front_page",
      "category": "category_local_news",
      "base_url": "https://doxthi.gr",
      "path": "/",
      "region": "Attiki",
      "main_item": null,
      "secondary_item": {
        "content": {
          "css": [
            "div.td-big-grid-flex-post"
          ]
        },
        "action_selector": {
          "css": [
            "h3 a::attr(href)"
          ]
        },
        "title_selector": {
          "css": [
            "h3 a::text"
          ]
        },
        "image_selector": {
          "css": [
            "span::attr(data-img-url)"
          ]
        }
      }
    },
    {
      "edition": "GR",
      "source": "glyfada24.gr",
      "item_type": "front_page",
      "category": "category_local_news",
      "base_url": "https://www.glyfada24.gr",
      "path": "/",
      "region": "Attiki",
      "main_item": null,
      "secondary_item": {
        "content": {
          "css": [
            "li"
          ]
        },
        "action_selector": {
          "css": [
            "p a::attr(href)"
          ]
        },
        "title_selector": {
          "css": [
            "div h3::text"
          ]
        },
        "image_selector": {
          "css": [
            "img::attr(src)"
          ]
        }
      }
    },
    {
      "edition": "GR",
      "source": "aixmi-news.gr",
      "item_type": "front_page",
      "category": "category_local_news",
      "base_url": "https://www.aixmi-news.gr",
      "path": "/",
      "region": "DytikiEllada",
      "main_item": null,
      "secondary_item": {
        "content": {
          "css": [
            "div.even", "div.odd"
          ]
        },
        "action_selector": {
          "css": [
            "div.mod_itemTitle a::attr(href)"
          ]
        },
        "title_selector": {
          "css": [
            "div.mod_itemTitle a::text"
          ]
        },
        "image_selector": {
          "css": [
            "img::attr(src)"
          ]
        }
      }
    },
    {
      "edition": "GR",
      "source": "patrisnews.com",
      "item_type": "front_page",
      "category": "category_local_news",
      "base_url": "https://www.patrisnews.com",
      "path": "/",
      "region": "DytikiEllada",
      "main_item": {
        "content": {
          "css": [
            "div.main-post"
          ]
        },
        "action_selector": {
          "css": [
            "div a::attr(href)"
          ]
        },
        "title_selector": {
          "css": [
            "a h2::text"
          ]
        },
        "image_selector": {
          "css": [
            "img::attr(data-src)"
          ]
        }
      },
      "secondary_item": {
        "content": {
          "css": [
            "div.vc_grid-item"
          ]
        },
        "action_selector": {
          "css": [
            "h5 a::attr(href)"
          ]
        },
        "title_selector": {
          "css": [
            "h5 a::text"
          ]
        },
        "image_selector": {
          "css": [
            "img::attr(data-src)"
          ]
        }
      }
    },
    {
      "edition": "GR",
      "source": "inkefalonia.gr",
      "item_type": "front_page",
      "category": "category_local_news",
      "base_url": "https://www.inkefalonia.gr",
      "path": "/",
      "region": "IoniaiNisoi",
      "main_item": null,
      "secondary_item": {
        "content": {
          "css": [
            "div.layout_2--item"
          ]
        },
        "action_selector": {
          "css": [
            "h4 a::attr(href)"
          ]
        },
        "title_selector": {
          "css": [
            "h4 a::text"
          ]
        },
        "image_selector": {
          "css": [
            "img::attr(src)"
          ]
        }
      }
    },
    {
      "edition": "GR",
      "source": "ekefalonia.gr",
      "item_type": "front_page",
      "category": "category_local_news",
      "base_url": "https://ekefalonia.gr",
      "path": "/",
      "region": "IoniaiNisoi",
      "main_item": {
        "content": {
          "css": [
            "div.colaS"
          ]
        },
        "action_selector": {
          "css": [
            "div a::attr(href)"
          ]
        },
        "title_selector": {
          "css": [
            "div a::text"
          ]
        },
        "image_selector": {
          "css": [
            "div::attr(style)"
          ]
        }
      },
      "secondary_item": {
        "content": {
          "css": [
            "div.popS"
          ]
        },
        "action_selector": {
          "css": [
            "div a::attr(href)"
          ]
        },
        "title_selector": {
          "css": [
            "div a::text"
          ]
        },
        "image_selector": {
          "css": [
            "img::attr(src)"
          ]
        }
      }
    },
    {
      "edition": "GR",
      "source": "imerazante.gr",
      "item_type": "front_page",
      "category": "category_local_news",
      "base_url": "https://www.imerazante.gr",
      "path": "/",
      "region": "IoniaiNisoi",
      "main_item": {
        "content": {
          "css": [
            "div.n2-ow"
          ]
        },
        "action_selector": {
          "css": [
            "div::attr(href)"
          ]
        },
        "title_selector": {
          "css": [
            "div::text"
          ]
        },
        "image_selector": {
          "css": [
            "img::attr(src)"
          ]
        }
      },
      "secondary_item": {
        "content": {
          "css": [
            "div.post-item"
          ]
        },
        "action_selector": {
          "css": [
            "h3 a::attr(href)"
          ]
        },
        "title_selector": {
          "css": [
            "h3 a::text"
          ]
        },
        "image_selector": {
          "css": [
            "img::attr(src)"
          ]
        }
      }
    },
    {
      "edition": "GR",
      "source": "lefkadapress.gr",
      "item_type": "front_page",
      "category": "category_local_news",
      "base_url": "https://lefkadapress.gr",
      "path": "/",
      "region": "IoniaiNisoi",
      "main_item": null,
      "secondary_item": {
        "content": {
          "css": [
            "article.post-wrap"
          ]
        },
        "action_selector": {
          "css": [
            "h2 a::attr(href)"
          ]
        },
        "title_selector": {
          "css": [
            "h2 a::text"
          ]
        },
        "image_selector": {
          "css": [
            "img::attr(src)"
          ]
        }
      }
    },
    {
      "edition": "GR",
      "source": "neoiagones.gr",
      "item_type": "front_page",
      "category": "category_local_news",
      "base_url": "https://neoiagones.gr",
      "path": "/",
      "region": "Ipeiros",
      "main_item": null,
      "secondary_item": {
        "content": {
          "css": [
            "article.jeg_post"
          ]
        },
        "action_selector": {
          "css": [
            "h3 a::attr(href)"
          ]
        },
        "title_selector": {
          "css": [
            "h3 a::text"
          ]
        },
        "image_selector": {
          "css": [
            "img::attr(data-src)"
          ]
        }
      }
    },
    {
      "edition": "GR",
      "source": "proinanea.gr",
      "item_type": "front_page",
      "category": "category_local_news",
      "base_url": "https://www.proinanea.gr",
      "path": "/",
      "region": "Ipeiros",
      "main_item": null,
      "secondary_item": {
        "content": {
          "css": [
            "div.np-single-slide-wrap"
          ]
        },
        "action_selector": {
          "css": [
            "h3 a::attr(href)"
          ]
        },
        "title_selector": {
          "css": [
            "h3 a::text"
          ]
        },
        "image_selector": {
          "css": [
            "img::attr(src)"
          ]
        }
      }
    },
    {
      "edition": "GR",
      "source": "epiruspost.gr",
      "item_type": "front_page",
      "category": "category_local_news",
      "base_url": "https://www.epiruspost.gr",
      "path": "/",
      "region": "Ipeiros",
      "main_item": null,
      "secondary_item": {
        "content": {
          "css": [
            "div.jeg_slide_item"
          ]
        },
        "action_selector": {
          "css": [
            "h2 a::attr(href)"
          ]
        },
        "title_selector": {
          "css": [
            "h2 a::text"
          ]
        },
        "image_selector": {
          "css": [
            "img::attr(srcset)"
          ], "index": 0
        }
      }
    },
    {
      "edition": "GR",
      "source": "ipeirotika.gr",
      "item_type": "front_page",
      "category": "category_local_news",
      "base_url": "https://ipeirotika.gr",
      "path": "/",
      "region": "Ipeiros",
      "main_item": null,
      "secondary_item": {
        "content": {
          "css": [
            "div.banner-post-grid"
          ]
        },
        "action_selector": {
          "css": [
            "h3 a::attr(href)", "h5 a::attr(href)"
          ]
        },
        "title_selector": {
          "css": [
            "h3 a::text", "h5 a::text"
          ]
        },
        "image_selector": {
          "css": [
            "span::attr(data-src)"
          ]
        }
      }
    },
    {
      "edition": "GR",
      "source": "proinanea.gr",
      "item_type": "front_page",
      "category": "category_local_news",
      "base_url": "https://www.proinanea.gr",
      "path": "/",
      "region": "Ipeiros",
      "main_item": null,
      "secondary_item": {
        "content": {
          "css": [
            "li"
          ]
        },
        "action_selector": {
          "css": [
            "h3 a::attr(href)"
          ]
        },
        "title_selector": {
          "css": [
            "h3 a::text"
          ]
        },
        "image_selector": {
          "css": [
            "img::attr(src)"
          ]
        }
      }
    },
    {
      "edition": "GR",
      "source": "mysalonika.gr",
      "item_type": "front_page",
      "category": "category_local_news",
      "base_url": "https://mysalonika.gr",
      "path": "/",
      "region": "KentrikiMakedonia",
      "main_item": null,
      "secondary_item": {
        "content": {
          "css": [
            "div"
          ]
        },
        "action_selector": {
          "css": [
            "h2 a::attr(href)"
          ]
        },
        "title_selector": {
          "css": [
            "h2 a::text"
          ]
        },
        "image_selector": {
          "css": [
            "img::attr(data-src)"
          ]
        }
      }
    },
    {
      "edition": "GR",
      "source": "grtimes.gr",
      "item_type": "front_page",
      "category": "category_local_news",
      "base_url": "https://www.grtimes.gr",
      "path": "/",
      "region": "KentrikiMakedonia",
      "main_item": null,
      "secondary_item": {
        "content": {
          "css": [
            "div.item-slide"
          ]
        },
        "action_selector": {
          "css": [
            "div a::attr(href)"
          ]
        },
        "title_selector": {
          "css": [
            "a h2::text"
          ]
        },
        "image_selector": {
          "css": [
            "img::attr(srcset)"
          ], "index": 0
        }
      }
    },
    {
      "edition": "GR",
      "source": "media-news.gr",
      "item_type": "front_page",
      "category": "category_local_news",
      "base_url": "http://www.media-news.gr",
      "path": "/",
      "region": "KentrikiMakedonia",
      "main_item": null,
      "secondary_item": {
        "content": {
          "css": [
            "div.mvp-feat2-main", "div.mvp-feat2-sub"
          ]
        },
        "action_selector": {
          "css": [
            "div a::attr(href)"
          ]
        },
        "title_selector": {
          "css": [
            "div h2::text"
          ]
        },
        "image_selector": {
          "css": [
            "img::attr(src)"
          ]
        }
      }
    },
    {
      "edition": "GR",
      "source": "ergoxalkidikis.gr",
      "item_type": "front_page",
      "category": "category_local_news",
      "base_url": "https://ergoxalkidikis.gr",
      "path": "/",
      "region": "KentrikiMakedonia",
      "main_item": null,
      "secondary_item": {
        "content": {
          "css": [
            "div.slide-content", "div.highlighted-slide"
          ]
        },
        "action_selector": {
          "css": [
            "h2 a::attr(href)"
          ]
        },
        "title_selector": {
          "css": [
            "h2 a::text"
          ]
        },
        "image_selector": {
          "css": [
            "img::attr(src)"
          ]
        }
      }
    },
    {
      "edition": "GR",
      "source": "ditiki.gr",
      "item_type": "front_page",
      "category": "category_local_news",
      "base_url": "http://ditiki.gr",
      "path": "/",
      "region": "KentrikiMakedonia",
      "main_item": null,
      "secondary_item": {
        "content": {
          "css": [
            "div.feat-top2-left-wrap", "div.feat-top2-right-wrap"
          ]
        },
        "action_selector": {
          "css": [
            "div.feat-top2-left a::attr(href)", "div.feat-top2-right a::attr(href)"
          ]
        },
        "title_selector": {
          "css": [
            "h2::text"
          ]
        },
        "image_selector": {
          "css": [
            "img::attr(src)"
          ]
        }
      }
    },
    {
      "edition": "GR",
      "source": "anatolh.com",
      "item_type": "front_page",
      "category": "category_local_news",
      "base_url": "https://www.anatolh.com",
      "path": "/",
      "region": "Kriti",
      "main_item": null,
      "secondary_item": {
        "content": {
          "css": [
            "div.td-big-grid-post"
          ]
        },
        "action_selector": {
          "css": [
            "h3 a::attr(href)"
          ]
        },
        "title_selector": {
          "css": [
            "h3 a::text"
          ]
        },
        "image_selector": {
          "css": [
            "img::attr(data-src)"
          ]
        }
      }
    },
    {
      "edition": "GR",
      "source": "haniotika-nea.gr",
      "item_type": "front_page",
      "category": "category_local_news",
      "base_url": "https://www.haniotika-nea.gr",
      "path": "/",
      "region": "Kriti",
      "main_item": null,
      "secondary_item": {
        "content": {
          "css": [
            "div.td-module-container"
          ]
        },
        "action_selector": {
          "css": [
            "h3 a::attr(href)"
          ]
        },
        "title_selector": {
          "css": [
            "h3 a::text"
          ]
        },
        "image_selector": {
          "css": [
            "span::attr(data-img-url)"
          ]
        }
      }
    },
    {
      "edition": "GR",
      "source": "cretapost.gr",
      "item_type": "front_page",
      "category": "category_local_news",
      "base_url": "https://www.cretapost.gr",
      "path": "/",
      "region": "Kriti",
      "main_item": null,
      "secondary_item": {
        "content": {
          "css": [
            "div.Cretapost-slides__slide"
          ]
        },
        "action_selector": {
          "css": [
            "h2 a::attr(href)"
          ]
        },
        "title_selector": {
          "css": [
            "h2 a::text"
          ]
        },
        "image_selector": {
          "css": [
            "img::attr(src)"
          ]
        }
      }
    },
    {
      "edition": "GR",
      "source": "zarpanews.gr",
      "item_type": "front_page",
      "category": "category_local_news",
      "base_url": "https://www.zarpanews.gr",
      "path": "/",
      "region": "Kriti",
      "main_item": null,
      "secondary_item": {
        "content": {
          "css": [
            "div.td-big-grid-post"
          ]
        },
        "action_selector": {
          "css": [
            "h3 a::attr(href)"
          ]
        },
        "title_selector": {
          "css": [
            "h3 a::text"
          ]
        },
        "image_selector": {
          "css": [
            "img::attr(src)"
          ]
        }
      }
    },
    {
      "edition": "GR",
      "source": "pelop.gr",
      "item_type": "front_page",
      "category": "category_local_news",
      "base_url": "https://pelop.gr",
      "path": "/",
      "region": "Peloponnisos",
      "main_item": {
        "content": {
          "css": [
            "div.featured-article"
          ]
        },
        "action_selector": {
          "css": [
            "div a::attr(href)"
          ]
        },
        "title_selector": {
          "css": [
            "a h3::text"
          ]
        },
        "image_selector": {
          "css": [
            "img::attr(src)"
          ]
        }
      },
      "secondary_item": {
        "content": {
          "css": [
            "div.article"
          ]
        },
        "action_selector": {
          "css": [
            "h3 a::attr(href)"
          ]
        },
        "title_selector": {
          "css": [
            "h3 a::text"
          ]
        },
        "image_selector": {
          "css": [
            "img::attr(src)"
          ]
        }
      }
    },
    {
      "edition": "GR",
      "source": "tempo24.news",
      "item_type": "front_page",
      "category": "category_local_news",
      "base_url": "https://tempo24.news",
      "path": "/",
      "region": "Peloponnisos",
      "main_item": {
        "content": {
          "css": [
            "div.col-md-12"
          ]
        },
        "action_selector": {
          "css": [
            "h3 a::attr(href)"
          ]
        },
        "title_selector": {
          "css": [
            "h3 a::text"
          ]
        },
        "image_selector": {
          "css": [
            "img::attr(src)"
          ]
        }
      },
      "secondary_item": {
        "content": {
          "css": [
            "div.col-md-4"
          ]
        },
        "action_selector": {
          "css": [
            "h3 a::attr(href)"
          ]
        },
        "title_selector": {
          "css": [
            "h3 a::text"
          ]
        },
        "image_selector": {
          "css": [
            "img::attr(src)"
          ]
        }
      }
    },
    {
      "edition": "GR",
      "source": "protinews.com.gr",
      "item_type": "front_page",
      "category": "category_local_news",
      "base_url": "https://www.protinews.com.gr",
      "path": "/",
      "region": "Peloponnisos",
      "main_item": null,
      "secondary_item": {
        "content": {
          "css": [
            "div.td-module-container"
          ]
        },
        "action_selector": {
          "css": [
            "h3 a::attr(href)"
          ]
        },
        "title_selector": {
          "css": [
            "h3 a::text"
          ]
        },
        "image_selector": {
          "css": [
            "span::attr(data-img-url)"
          ]
        }
      }
    },
    {
      "edition": "GR",
      "source": "spartavoice.gr",
      "item_type": "front_page",
      "category": "category_local_news",
      "base_url": "https://www.spartavoice.gr",
      "path": "/",
      "region": "Peloponnisos",
      "main_item": null,
      "secondary_item": {
        "content": {
          "css": [
            "div.single-slide"
          ]
        },
        "action_selector": {
          "css": [
            "h3 a::attr(href)"
          ]
        },
        "title_selector": {
          "css": [
            "h3 a::text"
          ]
        },
        "image_selector": {
          "css": [
            "img::attr(src)"
          ]
        }
      }
    },
    {
      "edition": "GR",
      "source": "korinthiannews.gr",
      "item_type": "front_page",
      "category": "category_local_news",
      "base_url": "https://korinthiannews.gr",
      "path": "/",
      "region": "Peloponnisos",
      "main_item": null,
      "secondary_item": {
        "content": {
          "css": [
            "div.td-big-grid-post"
          ]
        },
        "action_selector": {
          "css": [
            "h3 a::attr(href)"
          ]
        },
        "title_selector": {
          "css": [
            "h3 a::text"
          ]
        },
        "image_selector": {
          "css": [
            "img::attr(src)"
          ]
        }
      }
    },
    {
      "edition": "GR",
      "source": "ekorinthos.gr",
      "item_type": "front_page",
      "category": "category_local_news",
      "base_url": "https://ekorinthos.gr",
      "path": "/",
      "region": "Peloponnisos",
      "main_item": null,
      "secondary_item": {
        "content": {
          "css": [
            "div.td-module-container"
          ]
        },
        "action_selector": {
          "css": [
            "h3 a::attr(href)"
          ]
        },
        "title_selector": {
          "css": [
            "h3 a::text"
          ]
        },
        "image_selector": {
          "css": [
            "span::attr(data-img-url)"
          ]
        }
      }
    },
    {
      "edition": "GR",
      "source": "messiniapress.gr",
      "item_type": "front_page",
      "category": "category_local_news",
      "base_url": "https://messiniapress.gr",
      "path": "/",
      "region": "Peloponnisos",
      "main_item": null,
      "secondary_item": {
        "content": {
          "css": [
            "article.post"
          ]
        },
        "action_selector": {
          "css": [
            "h2 a::attr(href)"
          ]
        },
        "title_selector": {
          "css": [
            "h2 a::text"
          ]
        },
        "image_selector": {
          "css": [
            "img::attr(src)"
          ]
        }
      }
    },
    {
      "edition": "GR",
      "source": "lamianow.gr",
      "item_type": "front_page",
      "category": "category_local_news",
      "base_url": "https://lamianow.gr",
      "path": "/",
      "region": "StereaEllada",
      "main_item": null,
      "secondary_item": {
        "content": {
          "css": [
            "div.block-wrap"
          ]
        },
        "action_selector": {
          "css": [
            "h2 a::attr(href)"
          ]
        },
        "title_selector": {
          "css": [
            "h2 a::text"
          ]
        },
        "image_selector": {
          "css": [
            "img::attr(src)"
          ]
        }
      }
    },
    {
      "edition": "GR",
      "source": "palmosev.gr",
      "item_type": "front_page",
      "category": "category_local_news",
      "base_url": "https://www.palmosev.gr",
      "path": "/",
      "region": "StereaEllada",
      "main_item": null,
      "secondary_item": {
        "content": {
          "css": [
            "article.post"
          ]
        },
        "action_selector": {
          "css": [
            "h3 a::attr(href)"
          ]
        },
        "title_selector": {
          "css": [
            "h3 a::text"
          ]
        },
        "image_selector": {
          "css": [
            "img::attr(src)"
          ]
        }
      }
    },
    {
      "edition": "GR",
      "source": "aixmi-news.gr",
      "item_type": "front_page",
      "category": "category_local_news",
      "base_url": "https://www.aixmi-news.gr",
      "path": "/",
      "region": "StereaEllada",
      "main_item": null,
      "secondary_item": {
        "content": {
          "css": [
            "div.fpbox"
          ]
        },
        "action_selector": {
          "css": [
            "div a::attr(href)"
          ]
        },
        "title_selector": {
          "css": [
            "div a::text"
          ]
        },
        "image_selector": {
          "css": [
            "img::attr(src)"
          ]
        }
      }
    },
    {
      "edition": "GR",
      "source": "lamiakos-typos.gr",
      "item_type": "front_page",
      "category": "category_local_news",
      "base_url": "http://www.lamiakos-typos.gr",
      "path": "/",
      "region": "StereaEllada",
      "main_item": null,
      "secondary_item": {
        "content": {
          "css": [
            "div.views-slideshow-cycle-main-frame-row"
          ]
        },
        "action_selector": {
          "css": [
            "span a::attr(href)"
          ]
        },
        "title_selector": {
          "css": [
            "a span::text"
          ]
        },
        "image_selector": {
          "css": [
            "img::attr(src)"
          ]
        }
      }
    },
    {
      "edition": "GR",
      "source": "messolonghinews.gr",
      "item_type": "front_page",
      "category": "category_local_news",
      "base_url": "https://messolonghinews.gr",
      "path": "/",
      "region": "StereaEllada",
      "main_item": {
        "content": {
          "css": [
            "li"
          ]
        },
        "action_selector": {
          "css": [
            "li a::attr(href)"
          ]
        },
        "title_selector": {
          "css": [
            "div h2::text"
          ]
        },
        "image_selector": {
          "css": [
            "div::attr(style)"
          ]
        }
      },
      "secondary_item": {
        "content": {
          "css": [
            "article.post"
          ]
        },
        "action_selector": {
          "css": [
            "h4 a::attr(href)"
          ]
        },
        "title_selector": {
          "css": [
            "h4 a::text"
          ]
        },
        "image_selector": {
          "css": [
            "img::attr(src)"
          ]
        }
      }
    },
    {
      "edition": "GR",
      "source": "egnomi.gr",
      "item_type": "front_page",
      "category": "category_local_news",
      "base_url": "https://www.egnomi.gr",
      "path": "/egnomi.php",
      "region": "StereaEllada",
      "main_item": {
        "content": {
          "css": [
            "div.grey-con"
          ]
        },
        "action_selector": {
          "css": [
            "h3 a::attr(href)"
          ]
        },
        "title_selector": {
          "css": [
            "a span::text"
          ]
        },
        "image_selector": {
          "css": [
            "img::attr(src)"
          ]
        }
      },
      "secondary_item": {
        "content": {
          "css": [
            "div.mini-box-featured"
          ]
        },
        "action_selector": {
          "css": [
            "li a::attr(href)"
          ]
        },
        "title_selector": {
          "css": [
            "a span::text"
          ]
        },
        "image_selector": {
          "css": [
            "img::attr(src)"
          ]
        }
      }
    },
    {
      "edition": "GR",
      "source": "kosmoslarissa.gr",
      "item_type": "front_page",
      "category": "category_local_news",
      "base_url": "https://www.kosmoslarissa.gr",
      "path": "/",
      "region": "Thessalia",
      "main_item": null,
      "secondary_item": {
        "content": {
          "css": [
            "div"
          ]
        },
        "action_selector": {
          "css": [
            "div a::attr(href)"
          ]
        },
        "title_selector": {
          "css": [
            "a div::text"
          ]
        },
        "image_selector": {
          "css": [
            "img::attr(src)"
          ]
        }
      }
    },
    {
      "edition": "GR",
      "source": "trikalaola.gr",
      "item_type": "front_page",
      "category": "category_local_news",
      "base_url": "https://www.trikalaola.gr",
      "path": "/",
      "region": "Thessalia",
      "main_item": null,
      "secondary_item": {
        "content": {
          "css": [
            "div.td-module-container"
          ]
        },
        "action_selector": {
          "css": [
            "h3 a::attr(href)"
          ]
        },
        "title_selector": {
          "css": [
            "h3 a::text"
          ]
        },
        "image_selector": {
          "css": [
            "span::attr(style)"
          ]
        }
      }
    },
    {
      "edition": "GR",
      "source": "tameteora.gr",
      "item_type": "front_page",
      "category": "category_local_news",
      "base_url": "https://www.tameteora.gr",
      "path": "/",
      "region": "Thessalia",
      "main_item": null,
      "secondary_item": {
        "content": {
          "css": [
            "div.td-module-container"
          ]
        },
        "action_selector": {
          "css": [
            "h3 a::attr(href)"
          ]
        },
        "title_selector": {
          "css": [
            "h3 a::text"
          ]
        },
        "image_selector": {
          "css": [
            "span::attr(style)"
          ]
        }
      }
    },
    {
      "edition": "GR",
      "source": "stagonnews.gr",
      "item_type": "front_page",
      "category": "category_local_news",
      "base_url": "https://www.stagonnews.gr",
      "path": "/",
      "region": "Thessalia",
      "main_item": null,
      "secondary_item": {
        "content": {
          "css": [
            "article.entry"
          ]
        },
        "action_selector": {
          "css": [
            "h2 a::attr(href)"
          ]
        },
        "title_selector": {
          "css": [
            "h2 a::text"
          ]
        },
        "image_selector": {
          "css": [
            "img::attr(data-src)"
          ]
        }
      }
    },
    {
      "edition": "GR",
      "source": "trikalanews.gr",
      "item_type": "front_page",
      "category": "category_local_news",
      "base_url": "https://www.trikalanews.gr",
      "path": "/",
      "region": "Thessalia",
      "main_item": null,
      "secondary_item": {
        "content": {
          "css": [
            "article.post"
          ]
        },
        "action_selector": {
          "css": [
            "h3 a::attr(href)"
          ]
        },
        "title_selector": {
          "css": [
            "h3 a::text"
          ]
        },
        "image_selector": {
          "css": [
            "img::attr(data-src)"
          ]
        }
      }
    },
    {
      "edition": "GR",
      "source": "newsvolos.com",
      "item_type": "front_page",
      "category": "category_local_news",
      "base_url": "https://www.newsvolos.com",
      "path": "/",
      "region": "Thessalia",
      "main_item": null,
      "secondary_item": {
        "content": {
          "css": [
            "div.td-big-grid-post"
          ]
        },
        "action_selector": {
          "css": [
            "h3 a::attr(href)"
          ]
        },
        "title_selector": {
          "css": [
            "h3 a::text"
          ]
        },
        "image_selector": {
          "css": [
            "span::attr(data-img-url)"
          ]
        }
      }
    },
    {
      "edition": "GR",
      "source": "onlarissa.gr",
      "item_type": "front_page",
      "category": "category_local_news",
      "base_url": "https://www.onlarissa.gr",
      "path": "/",
      "region": "Thessalia",
      "main_item": null,
      "secondary_item": {
        "content": {
          "css": [
            "li.post-item"
          ]
        },
        "action_selector": {
          "css": [
            "h3 a::attr(href)"
          ]
        },
        "title_selector": {
          "css": [
            "h3 a::text"
          ]
        },
        "image_selector": {
          "css": [
            "img::attr(src)"
          ]
        }
      }
    },
    {
      "edition": "GR",
      "source": "chiosnews.com",
      "item_type": "front_page",
      "category": "category_local_news",
      "base_url": "https://chiosnews.com",
      "path": "/",
      "region": "Aigaio",
      "main_item": null,
      "secondary_item": {
        "content": {
          "css": [
            "div.td-big-grid-post"
          ]
        },
        "action_selector": {
          "css": [
            "h3 a::attr(href)"
          ]
        },
        "title_selector": {
          "css": [
            "h3 a::text"
          ]
        },
        "image_selector": {
          "css": [
            "img::attr(data-img-url)"
          ]
        }
      }
    },
    {
      "edition": "GR",
      "source": "emprosnet.gr",
      "item_type": "front_page",
      "category": "category_local_news",
      "base_url": "https://www.emprosnet.gr",
      "path": "/",
      "region": "Aigaio",
      "main_item": null,
      "secondary_item": {
        "content": {
          "css": [
            "div.nspArts"
          ]
        },
        "action_selector": {
          "css": [
            "h4 a::attr(href)"
          ]
        },
        "title_selector": {
          "css": [
            "h4 a::text"
          ]
        },
        "image_selector": {
          "css": [
            "img::attr(data-src)"
          ]
        }
      }
    },
    {
      "edition": "GR",
      "source": "lesvosnews.net",
      "item_type": "front_page",
      "category": "category_local_news",
      "base_url": "https://www.lesvosnews.net",
      "path": "/",
      "region": "Aigaio",
      "main_item": null,
      "secondary_item": {
        "content": {
          "css": [
            "div.nspArts"
          ]
        },
        "action_selector": {
          "css": [
            "h4 a::attr(href)"
          ]
        },
        "title_selector": {
          "css": [
            "h4 a::text"
          ]
        },
        "image_selector": {
          "css": [
            "img::attr(data-src)"
          ]
        }
      }
    },
    {
      "edition": "GR",
      "source": "ikarianews.gr",
      "item_type": "front_page",
      "category": "category_local_news",
      "base_url": "https://ikarianews.gr",
      "path": "/",
      "region": "Aigaio",
      "main_item": null,
      "secondary_item": {
        "content": {
          "css": [
            "div"
          ]
        },
        "action_selector": {
          "css": [
            "h2 a::attr(href)"
          ]
        },
        "title_selector": {
          "css": [
            "h2 a::text"
          ]
        },
        "image_selector": {
          "css": [
            "a::attr(style)"
          ]
        }
      }
    },
    {
      "edition": "GR",
      "source": "dimokratiki.gr",
      "item_type": "front_page",
      "category": "category_local_news",
      "base_url": "https://www.dimokratiki.gr",
      "path": "/",
      "region": "Aigaio",
      "main_item": null,
      "secondary_item": {
        "content": {
          "css": [
            "div.swiper-slide"
          ]
        },
        "action_selector": {
          "css": [
            "h2 a::attr(href)"
          ]
        },
        "title_selector": {
          "css": [
            "h2 a::text"
          ]
        },
        "image_selector": {
          "css": [
            "div::attr(style)"
          ]
        }
      }
    },
        {
      "edition": "GR",
      "source": "kosnews24.gr",
      "item_type": "front_page",
      "category": "category_local_news",
      "base_url": "https://www.kosnews24.gr",
      "path": "/",
      "region": "Aigaio",
      "main_item": {
        "content": {
          "css": [
            "div.mod"
          ]
        },
        "action_selector": {
          "css": [
            "div a::attr(href)"
          ]
        },
        "title_selector": {
          "css": [
            "h1::text"
          ]
        },
        "image_selector": {
          "css": [
            "div::attr(style)"
          ]
        }
      },
      "secondary_item": {
        "content": {
          "css": [
            "div.cell"
          ]
        },
        "action_selector": {
          "css": [
            "h3 a::attr(href)"
          ]
        },
        "title_selector": {
          "css": [
            "h3 a::text"
          ]
        },
        "image_selector": {
          "css": [
            "img::attr(src)"
          ]
        }
      }
    }
  ]
}